epoch,num_episodes,total_reward,reward_per_epoch,mean_q
1,78,3380,43.3333333333,1.87735332541
2,73,4100,56.1643835616,4.94993502304
3,73,4200,57.5342465753,7.57375025079
4,76,3980,52.3684210526,9.59964298695
5,80,4360,54.5,12.2769492498
6,77,4080,52.987012987,15.9187575905
7,78,4180,53.5897435897,16.3194175306
8,79,3960,50.1265822785,16.5783781406
9,78,3840,49.2307692308,17.1293473536
