mean_loss,epsilon
0.721863899828,0.999721
0.520191319308,0.999622
0.614355094829,0.9992233
0.405283338556,0.9991261
0.488768266131,0.9990118
0.622268965809,0.9987283
0.460134588232,0.9985888
0.508409401137,0.9983908
0.491383011519,0.9981415
0.436459690135,0.9979552
0.442293448385,0.997759
0.443894952461,0.9974953
0.512620047938,0.9972622
0.534823492327,0.9968599
0.460805030571,0.9965089
0.490473797019,0.9962587
0.480129918084,0.9960535
0.38861213465,0.9957448
0.481706236529,0.9954541
0.516784304483,0.9949465
0.458032866715,0.9945109
0.5307673446,0.9944218
0.443401083936,0.9939664
0.458042747947,0.9937171
0.360200274375,0.9935416
0.542812462205,0.993205
0.45155469337,0.9927865
0.390511381116,0.9924751
0.426140581229,0.9922015
0.440427906274,0.9919522
0.455840498388,0.9917821
0.456311355344,0.9916777
0.455863711899,0.9913312
0.649390788051,0.9912385
0.512291426559,0.9908524
0.483210307515,0.9905545
0.484813304707,0.9904582
0.356159517605,0.9903223
0.355344905452,0.990073
0.428397848152,0.9898867
0.414733609122,0.9897679
0.440122048701,0.9894007
0.462255580548,0.9893062
0.461388952201,0.988984
0.506886939051,0.9887365
0.562114386156,0.9886384
0.507431993863,0.9880732
0.412872003786,0.9878239
0.403282745589,0.9874657
0.50759373336,0.9871858
0.464998745465,0.9866908
0.518987855338,0.9863407
0.475773302263,0.9862426
0.425907034922,0.985825
0.688480277974,0.9856936
0.512925905004,0.9854848
0.465500779097,0.9852355
0.337665569942,0.9850492
0.447136058912,0.984597400001
0.559605540857,0.984348100001
0.467833871261,0.983707300001
0.474275389164,0.983221300001
0.494297338973,0.982572400001
0.559169282001,0.982439200001
0.421244777363,0.982275400001
0.508540975792,0.982026100001
0.436040084736,0.981523000001
0.48750101061,0.981317800001
0.403765562423,0.981068500001
0.407662138756,0.980887600001
0.503320035689,0.980660800001
0.449548172122,0.980285500001
0.513036776675,0.979896700001
0.495412812975,0.979717600001
0.438443406779,0.979379200001
0.452582208115,0.979124500001
0.500533052354,0.978784300001
0.384118271195,0.978534100001
0.479099809248,0.978309100001
0.35255379168,0.978155200001
0.516475735613,0.977905900001
0.319720801591,0.977725900001
0.499896050588,0.977563900001
0.369433051341,0.977314600001
0.365364436665,0.977128300001
0.384945153569,0.976468600001
0.463498223497,0.976181500001
0.370870575106,0.975747700001
0.445393861026,0.975566800001
0.470583425702,0.975317500001
0.339144166273,0.975059200001
0.462451957266,0.974703700001
0.434487674927,0.974376100001
0.488356040966,0.974254600001
0.459485954232,0.974010700001
0.525150077411,0.973689400001
0.419898705845,0.973576000001
0.423852810356,0.973254700001
0.499640685382,0.973029700001
0.440327054536,0.972898300001
0.296247983798,0.972749800001
0.520648199011,0.972410500001
0.459451552693,0.972172900001
0.488649415027,0.971997400001
0.462007943142,0.971748100001
0.366818502248,0.971638300001
0.429584075079,0.971464600001
0.414513985911,0.971155900001
0.461798694282,0.970927300001
0.501788409014,0.970602400001
0.475795987533,0.970294600001
0.468966991734,0.970156000001
0.464665629459,0.969550300001
0.410776473449,0.969253300001
0.502018890436,0.969104800001
0.433356527147,0.969011200001
0.456667368628,0.968699800001
0.50123740957,0.968246200001
0.520882530391,0.967865500001
0.413085329387,0.967615300001
0.479277574419,0.967500100001
0.380828321694,0.967281400001
0.446823925889,0.967002400001
0.428540276492,0.966757600001
0.406470540824,0.966601000001
0.431867638316,0.966351700001
0.523383386353,0.966043000001
0.406705479491,0.965801800001
0.415070705584,0.965552500001
0.460346393148,0.965298700001
0.455845882037,0.965087200001
0.423247852651,0.964658800001
0.467933807187,0.964402300001
0.356501837681,0.964298800001
0.555875079429,0.963897400001
0.467662644048,0.963713800001
0.474824744309,0.963402400001
0.428664313357,0.963079300001
0.472968499688,0.962892100001
0.373290634744,0.962801200001
0.471885638548,0.962498800001
0.480214219135,0.962326900001
0.472858296293,0.962128000001
0.438327032944,0.961878700001
0.340370400671,0.961768900001
0.542464021113,0.961595200001
0.438345040619,0.961096600001
0.409125917194,0.960861700001
0.445570425796,0.960547600001
0.405793198383,0.960277600001
0.326040384552,0.960183100001
0.513150456266,0.960102100001
0.536634509361,0.959852800001
0.453018177479,0.959495500001
0.509469564009,0.959163400001
0.504383474528,0.958891600001
0.432862110934,0.958607200001
0.374445251832,0.958491100001
0.501373264839,0.958031200001
0.354408856453,0.957948400001
0.492253613451,0.957553300001
0.404585461257,0.957234700001
0.40950968493,0.957109600001
0.48392136524,0.956803600001
0.430220561211,0.956279800001
0.430034583532,0.955515700001
0.562771659006,0.955438300001
0.46811424829,0.955189000001
0.365734953612,0.955120600001
0.536438132113,0.955034200001
0.441115835637,0.954760600001
0.535148898207,0.954502300001
0.428453881752,0.954226900002
0.454078427553,0.953977600002
0.432184222334,0.953867800002
0.61905108514,0.953710300002
0.495889149638,0.953267500002
0.433194582528,0.953186500002
0.595913194822,0.953070400002
0.529384289718,0.952821100002
0.367965819075,0.952726600002
0.402199758841,0.952627600002
0.474135822156,0.952091200002
0.637677677641,0.951999400002
0.618939493333,0.951911200002
0.377096009145,0.951661900002
0.497486543331,0.951469300002
0.527556139795,0.951184000002
0.573286562724,0.950934700002
0.386283981122,0.950554900002
0.410584191204,0.950402800002
0.548383399908,0.950095000002
0.604789226321,0.949978900002
0.515816632055,0.949799800002
0.405855450332,0.949550500002
0.499058881794,0.949303900002
0.464077690657,0.948814300002
0.385659745255,0.948565000002
0.392730217741,0.948378700002
0.346384172072,0.948258100002
0.382171374578,0.947669500002
0.504642400141,0.947240200002
0.466779688213,0.947084500002
0.357484291758,0.946814500002
0.523045921655,0.946626400002
0.492774957431,0.946527400002
0.37870544707,0.946204300002
0.431729322093,0.945552700002
0.395686505678,0.945204400002
0.481689734441,0.944955100002
0.34553896744,0.944845300002
0.453977838217,0.944639200002
0.410060662918,0.944023600002
0.510468411014,0.943924600002
0.364906596982,0.943751800002
0.434959243559,0.942544900002
0.535121780781,0.942416200002
0.441108517221,0.942347800002
0.471148093336,0.942012100002
0.438123180103,0.941808700002
0.379713664688,0.941698900002
0.441664917575,0.941409100002
0.452406036177,0.941196700002
0.43851214208,0.940998700002
0.448332067931,0.940603600002
0.535158099172,0.940495600002
0.421515723627,0.940250800002
0.480962129612,0.939879100002
0.423910431428,0.939739600002
0.499249456983,0.939638800002
0.36042104912,0.939389500002
0.368352599736,0.939214900002
0.463968761039,0.938839600002
0.429993061601,0.938523700002
0.467732013568,0.938185300002
0.430720991691,0.938008900002
0.463513002234,0.937704700002
0.387293121634,0.937487800002
0.360290430593,0.937333900002
0.467737663409,0.936900100002
0.39150865736,0.936574300002
0.462319798627,0.936370900002
0.495912305221,0.936121600002
0.448745020761,0.935935300002
0.443234814818,0.935817400002
0.443941433357,0.935063200002
0.454369314035,0.934732900002
0.484170609282,0.934551100002
0.396750235744,0.934252300002
0.383213338307,0.933784300002
0.43085540413,0.933200200002
0.468831053462,0.932930200002
0.518258137375,0.932746600002
0.477445985849,0.931897900002
0.438364138489,0.931648600002
0.419940903489,0.931180600002
0.469143701111,0.930961900002
0.481450379454,0.930646000002
0.65056600426,0.930564100002
0.451341588995,0.930378700002
0.467051080983,0.930025900002
0.501016248702,0.929722600002
0.339939210422,0.929639800002
0.37517119096,0.929390500002
0.467789212325,0.929180800002
0.506592632049,0.929074600002
0.445204126196,0.928772200002
0.350915557432,0.928687600002
0.433776198883,0.928432000002
0.479928811039,0.928182700002
0.398446939557,0.927730000002
0.496498943242,0.927349300002
0.460353803906,0.926919100002
0.434402021514,0.926522200002
0.455688850429,0.926382700002
0.449903170923,0.926065900002
0.492483664262,0.925557400002
0.38355622824,0.925349500002
0.453287298796,0.925148800002
0.342320245841,0.925057900002
0.496760321827,0.924890500002
0.476711864851,0.924264100002
0.377562288247,0.924086800002
0.443557058005,0.923680900003
0.365545894231,0.923431600003
0.386098124506,0.923131000003
0.618136027488,0.923026600003
0.310777036643,0.922777300003
0.508965780927,0.922197700003
0.448741439384,0.922110400003
0.429037899703,0.921710800003
0.451604274477,0.921171700003
0.486246175988,0.920728900003
0.437653315587,0.920194300003
0.522716002225,0.920094400003
0.350110515948,0.919978300003
0.368508809718,0.919668700003
0.501636417621,0.919486900003
0.523850884166,0.919165600003
0.452430221865,0.918544600003
0.565712293968,0.918367300003
0.531659488866,0.918141400003
0.40762540876,0.917892100003
0.474542945482,0.917439400003
0.520965153338,0.917302600003
0.422382065961,0.917053300003
0.482578397817,0.916607800003
0.538603518812,0.916280200003
0.46693175089,0.915855400003
0.630926297168,0.915709600003
0.427953252834,0.915629500003
0.554699350576,0.915380200003
0.395393286685,0.915205600003
0.467048775671,0.914678200003
0.519562295958,0.914160700003
0.386690550243,0.913964500003
0.495740740449,0.913733200003
0.422031801095,0.913483900003
0.48231128079,0.913297600003
0.302828536445,0.913180600003
0.497357685423,0.912931300003
0.476747201528,0.912497500003
0.473050532275,0.912349000003
0.442362876821,0.911898100003
0.305545537483,0.911819800003
0.573185127415,0.911728900003
0.607819217059,0.911518300003
0.441298087677,0.911181700003
0.502390306723,0.911028700003
0.42930506579,0.910724500003
0.40822671364,0.910292500003
0.528567923265,0.910108000003
0.466611414639,0.909858700003
0.455888206329,0.909470800003
0.490844209353,0.909374500003
0.479873262806,0.909038800003
0.430252976076,0.908941600003
0.374984165417,0.908821000003
0.434484682119,0.908571700003
0.461401789439,0.908385400003
0.684475420005,0.908267500003
0.514466030608,0.907973200003
0.491813546553,0.907500700003
0.551133481599,0.907246900003
0.529290706363,0.907020100003
0.6536691433,0.906860800003
0.499512496354,0.906580000003
0.459581095279,0.906228100003
0.496695310322,0.906016600003
0.448559729739,0.905717800003
0.457038867739,0.905318200003
0.546008925956,0.905028400003
0.467073103324,0.904759300003
0.484139035988,0.904537000003
0.513648313245,0.904296700003
0.528379200806,0.903701800003
0.474442133336,0.903421000003
0.44144981821,0.903210400003
0.487681812656,0.903113200003
0.440281325232,0.902446300003
0.4640177719,0.902290600003
0.462170274738,0.902199700003
0.40349437969,0.901896400003
0.446886688491,0.901698400003
0.484078122674,0.901557100003
0.53607405025,0.901307800003
0.507698433033,0.901133200003
0.457133397739,0.900908200003
0.496630926935,0.900658900003
0.426710526811,0.900472600003
0.53728371877,0.900349300003
0.427229853279,0.899875000003
0.481266892666,0.899644600003
0.524471383236,0.899045200003
0.47918629737,0.898723000003
0.522202094562,0.898358500003
0.521755653395,0.898176700003
0.396617100097,0.897927400003
0.470951430086,0.897693400003
0.437255580083,0.897554800003
0.518880559198,0.897305500003
0.537552120613,0.897151600003
0.525215606591,0.896968000003
0.433846344363,0.896718700003
0.434000970647,0.896544100003
0.580251826277,0.896282200003
0.524243388845,0.895994200003
0.439908725277,0.895862800003
0.508118943958,0.895565800003
0.499505153248,0.895235500003
0.409175340103,0.895123000003
0.485476245832,0.894824200003
0.500610044725,0.894488500003
0.548768338807,0.894344500003
0.527008316981,0.894247300003
0.438239173037,0.893796400003
0.572083854605,0.893611000004
0.556242551639,0.893327500004
0.492068725306,0.893078200004
0.502711190692,0.892987300004
0.412494134462,0.892875700004
0.405585518364,0.892551700004
0.464884351761,0.892452700004
0.402376569932,0.892017100004
0.488196959052,0.891743500004
0.45769583734,0.891649000004
0.469029961506,0.891456400004
0.572967808824,0.891050500004
0.532918060631,0.890798500004
0.562193014405,0.890662600004
0.456683849088,0.890423200004
0.571059916762,0.890057800004
0.676587533105,0.889981300004
0.500339245097,0.889723900004
0.431878648968,0.889492600004
0.432431418869,0.889425100004
0.512506182347,0.888971500004
0.458206816272,0.888789700004
0.572146943046,0.888683500004
0.446384939879,0.888434200004
0.587674812677,0.888063400004
0.548303462359,0.887447800004
0.501569541059,0.886988800004
0.475190590363,0.886245400004
0.559560253897,0.885984400004
0.493814354639,0.885469600004
0.500013212486,0.885276100004
0.399525452918,0.885139300004
0.563476727743,0.884773900004
0.474055431906,0.884681200004
0.421472181551,0.884599300004
0.455391864685,0.884389600004
0.537862255834,0.884292400004
0.410330107813,0.884204200004
0.597719509002,0.883855000004
0.540827059378,0.883627300004
0.527543394142,0.883537300004
0.444206737185,0.883119700004
0.447486811898,0.883027900004
0.537881651609,0.882763300004
0.516969492784,0.882424000004
0.422138737373,0.881994700004
0.464989043294,0.881855200004
0.500071222928,0.881631100004
0.459414432598,0.881403400004
0.474991493988,0.881034400004
0.451219750689,0.880785100004
0.430431424271,0.880508800004
0.499971226774,0.880390900004
0.542289976784,0.880141600004
0.515096991132,0.879918400004
0.505794736169,0.879434200004
0.509955257853,0.879184900004
0.559551439469,0.879116500004
0.568442728307,0.879030100004
0.509350428489,0.878677300004
0.474471817394,0.878271400004
0.425234578423,0.878000500004
0.577788785693,0.877751200004
0.463972166831,0.877652200004
0.492000726391,0.877544200004
0.507688611017,0.877294900004
0.501433838379,0.877160800004
0.512567874218,0.876739600004
0.560975325146,0.876530800004
0.489362822867,0.876132100004
0.552616261959,0.876040300004
0.534491040998,0.875673100004
0.529157992094,0.875581300004
0.518827590996,0.875480500004
0.427498461652,0.875231200004
0.54857672368,0.875121400004
0.434511760092,0.874790200004
0.538130989898,0.874504000004
0.439343916589,0.874431100004
0.524170101874,0.874188100004
0.515760199933,0.873847900004
0.529158833093,0.873562600004
0.497139672935,0.873460000004
0.50459112088,0.873116200004
0.522343079881,0.872731000004
0.517683469728,0.872629300004
0.428793205545,0.872297200004
0.541369567843,0.871884100004
0.546653171217,0.871295500004
0.522975742249,0.870692500004
0.610993197472,0.870597100004
0.476037705278,0.870358600004
0.459894005177,0.869878000004
0.42050558336,0.869706100004
0.452983171999,0.869572000004
0.511237554539,0.869322700004
0.589317543372,0.869140000004
0.491821285341,0.868607200004
0.430150879279,0.868353400004
0.441995635574,0.868229200004
0.496506536712,0.867592900004
0.482868082204,0.867343600004
0.454720697255,0.867233800004
0.454765517423,0.866968300004
0.506047076777,0.866698300004
0.448082025149,0.866551600004
0.464584106206,0.866265400004
0.46707463026,0.866016100004
0.470159337069,0.865737100004
0.55119640184,0.865366300004
0.556681327466,0.865117000004
0.500186142701,0.864778600004
0.446438013789,0.864491500004
0.53795525478,0.864233200004
0.494740278525,0.863734600004
0.605310534867,0.863642800004
0.547856377975,0.863094700005
0.375876219279,0.862912900005
0.50178448977,0.862570900005
0.478339395322,0.862202800005
0.53436404133,0.861877900005
0.576439425035,0.861790600005
0.491267440142,0.861461200005
0.510273266946,0.861082300005
0.507541849581,0.860533300005
0.506177156273,0.860228200005
0.548133471388,0.859994200005
0.462816789608,0.859898800005
0.465640600478,0.859632400005
0.498136650957,0.859546000005
0.483219942622,0.859367800005
0.503852862555,0.859060900005
0.445045221351,0.858753100005
0.493426958956,0.858477700005
0.478338820825,0.858228400005
0.52264003098,0.857995300005
0.607665438021,0.857895400005
0.495141602527,0.857646100005
0.515231875813,0.857548900005
0.552942770102,0.857187100005
0.530568206748,0.856832500005
0.559516788648,0.856630900005
0.561379891077,0.856455400005
0.592249643068,0.856138600005
0.592670631823,0.855956800005
0.417052321364,0.855501400005
0.529772871226,0.854856100005
0.551010577676,0.854116300005
0.468154546919,0.853762600005
0.515896129256,0.853327900005
0.517755165685,0.853192000005
0.51973141547,0.852868900005
0.479760963691,0.852623200005
0.510152857598,0.852094000005
0.512840153554,0.852003100005
0.498497778654,0.851635000005
0.498860147299,0.851185900005
0.528367337423,0.850995100005
0.521788115639,0.850634200005
0.507382321166,0.850235500005
0.561205998516,0.850055500005
0.570888334934,0.849806200005
0.521561271229,0.849572200005
0.487521003734,0.849477700005
0.491747259804,0.849053800005
0.482017312428,0.848897200005
0.479357870081,0.848720800005
0.550957722207,0.848368000005
0.562408566455,0.848150200005
0.549447200896,0.847495000005
0.512919719412,0.847222300005
0.507180696064,0.846771400005
0.523214714625,0.846460900005
0.53253989176,0.845810200005
0.51715884084,0.845724700005
0.490092310919,0.845633800005
0.483921030925,0.845392600005
0.522852916939,0.845299000005
0.543837042916,0.845128000005
0.537406736002,0.844698700005
0.51930923885,0.844468300005
0.486569529082,0.844272100005
0.507257502152,0.843693400005
0.53589540415,0.843394600005
0.490898945319,0.843148000005
0.537353457393,0.842770900005
0.554849894399,0.842642200005
0.505802356301,0.842483800005
0.533241045513,0.842234500005
0.555031689662,0.842048200005
0.531090209671,0.841835800005
0.593193981241,0.841525300005
0.518064150203,0.841204900005
0.440063014516,0.840942100005
0.409002073751,0.840620800005
0.49979350975,0.840365200005
0.603856840778,0.840275200005
0.523760962032,0.839816200005
0.501696679892,0.839666800005
0.527575935887,0.839341000005
0.485259052522,0.839059300005
0.509638142298,0.838783900005
0.505903534084,0.838464400005
0.53096316247,0.838224100005
0.422531343459,0.838099900005
0.503267907531,0.837717400005
0.495257599142,0.837457300005
0.592180974308,0.837389800005
0.503713070034,0.837055000005
0.458031263634,0.836851600005
0.505920510511,0.836345800005
0.521790631507,0.835838200005
0.531423670278,0.835320700005
0.444772339276,0.835157800005
0.545012875804,0.835075000005
0.482577959254,0.834825700005
0.570205238553,0.834546700005
0.453647357245,0.834309100005
0.474388943339,0.833995900005
0.512989189511,0.833854600005
0.560450351694,0.833680000005
0.470140831988,0.833180500005
0.481849582982,0.832597300006
0.527568136148,0.832234600006
0.493249509541,0.831889900006
0.476098783666,0.831523600006
0.514877452385,0.831443500006
0.495798869049,0.831203200006
0.560915900141,0.830890900006
0.522387238484,0.830765800006
0.46704985157,0.830516500006
0.530421865956,0.830187100006
0.511435337675,0.829927000006
0.542893761803,0.829534600006
0.437271254982,0.829399600006
0.560775051146,0.829291600006
0.524590892578,0.829087300006
0.509162969947,0.828750700006
0.503245902774,0.828382600006
0.465816653589,0.828037900006
0.574561142937,0.827731900006
0.453373069756,0.827587000006
0.443294865874,0.827337700006
0.502172496469,0.827054200006
0.484462319099,0.826698700006
0.543251046194,0.826449400006
0.510438650477,0.825974200006
0.497302596417,0.825700600006
0.526276456075,0.825496300006
0.597240511058,0.825368500006
0.504414231675,0.825031000006
0.478556496684,0.824843800006
0.514453218919,0.824745700006
0.624453499693,0.824651200006
0.529398495762,0.824142700006
0.5731997235,0.823690900006
0.528496146942,0.823557700006
0.529161068262,0.823241800006
0.593169678783,0.823159900006
0.543427098471,0.822584800006
0.486192805325,0.822242800006
0.451211983582,0.822046600006
0.528819035038,0.821848600006
0.522521195263,0.821549800006
0.425642368235,0.821403100006
0.477091536771,0.820932400006
0.465768373546,0.820404100006
0.459099929823,0.819993700006
0.483591479802,0.819857800006
0.458579939146,0.819624700006
0.447784122679,0.819523000006
0.475101111678,0.819269200006
0.47459095025,0.819013600006
0.565094086839,0.818905600006
0.526063051568,0.818692300006
0.471275774926,0.818254000006
0.619307868947,0.818138800006
0.37061607687,0.818042500006
0.463296149195,0.817793200006
0.524592006687,0.817624900006
0.477624416046,0.817257700006
0.455608372351,0.817054300006
0.552002442037,0.816824800006
0.488199988413,0.816738400006
0.513783433504,0.816489100006
0.565737297988,0.816262300006
0.564846598452,0.816160600006
0.536777362321,0.815655700006
0.448117164313,0.815568400006
0.484754503703,0.815310100006
0.478917917163,0.814516300006
0.504788363203,0.814355200006
0.442203081078,0.814086100006
0.523478560807,0.813836800006
0.568741662886,0.813662200006
0.507605338889,0.813437200006
0.45176034946,0.813090700006
0.553623406054,0.812922400006
0.496663639756,0.812807200006
0.528560688703,0.812557900006
0.514011193116,0.812353600006
0.510249283876,0.812253700006
0.505899404143,0.811856800006
0.51709260266,0.811414900006
0.501196463038,0.811247500006
0.468255340438,0.810998200006
0.475991059862,0.810697600006
0.493964392419,0.810130600006
0.468685941886,0.809668000006
0.506436030234,0.809523100006
0.511451886131,0.809122600006
0.506088929207,0.808732000006
0.475707745486,0.808623100006
0.487344470557,0.808272100006
0.496638744006,0.807602500006
0.499177883939,0.807376600006
0.447489882183,0.807195700006
0.449909034056,0.806821300006
0.456595893422,0.806622400006
0.505497582072,0.806423500006
0.491619762274,0.806177800006
0.484859055455,0.805966300006
0.42467660048,0.805721500006
0.482939966944,0.805350700006
0.476730005896,0.805155400006
0.414728785394,0.805054600006
0.471532534267,0.804718900006
0.482599247913,0.804408400006
0.365802151803,0.804205000006
0.443511452191,0.803946700006
0.44732003242,0.803688400006
0.436439302366,0.803053900006
0.524850460624,0.802827100006
0.43239540425,0.802620100006
0.46435762891,0.802380700007
0.477415834193,0.801927100007
0.476710270104,0.801411400007
0.465102392433,0.800986600007
0.48594768147,0.800416900007
0.445383458276,0.800331400007
0.484117524895,0.800225200007
0.445714573862,0.799920100007
0.487794601551,0.799633000007
0.391965019481,0.799436800007
0.444578161026,0.798918400007
0.408193027412,0.798812200007
0.468377492056,0.798496300007
0.453416478412,0.797409100007
0.435159054313,0.797254300007
0.447351614049,0.796496500007
0.464392461357,0.796026700007
0.456881771297,0.795825100007
0.556463784466,0.795619000007
0.414301910923,0.795120400007
0.440482994941,0.794464300007
0.388449408874,0.794367100007
0.379181516997,0.794117800007
0.374807300311,0.793986400007
0.404107786523,0.793774000007
0.443787116537,0.793426600007
0.434948642351,0.793080100007
0.526785004503,0.792995500007
0.484652802323,0.792753400007
0.423484403741,0.792572500007
0.443507738524,0.792304300007
0.454141510226,0.792022600007
0.519311502875,0.791833600007
0.439181773405,0.791226100007
0.444505841768,0.790966000007
0.4307550209,0.790492600007
0.390943713397,0.790422400007
0.474669837311,0.790165000007
0.399113330808,0.789863500007
0.409269245836,0.789395500007
0.465783443302,0.788978800007
0.481335088062,0.788712400007
0.390084522087,0.788635000007
0.457288538146,0.788389300007
0.385407983925,0.788098600007
0.442387868263,0.787823200007
0.419719880778,0.787417300007
0.425680568359,0.787105900007
0.478946682813,0.787014100007
0.423717884842,0.786632500007
0.468969658623,0.786543400007
0.478928988896,0.786267100007
0.437088545609,0.785755900007
0.404251413644,0.785316700007
0.450061915357,0.785061100007
0.431300126092,0.784774000007
0.380259701414,0.784509400007
0.408148699188,0.784230400007
0.370420570842,0.783977500007
0.425120016008,0.783655300007
0.42749203864,0.783265600007
0.462758378291,0.782912800007
0.521729533868,0.782530300007
0.534381645711,0.782039800007
0.564865642634,0.781713100007
0.550685736771,0.781260400007
0.534152913467,0.781100200007
0.541268453716,0.780603400007
0.530091921313,0.780228100007
0.517027466176,0.780035500007
0.557948100511,0.779753800007
0.551236907154,0.779519800007
0.559294040984,0.779030200007
0.548271383782,0.778499200007
0.551541526902,0.778008700007
0.554306877144,0.777497500007
0.597416997062,0.777160900007
0.527411240796,0.776791000007
0.597116736038,0.776715400007
0.514055041828,0.776466100007
0.534528850462,0.776157400007
0.582944882671,0.776002600007
0.535713832918,0.775731700007
0.516462278397,0.775474300007
0.522509019712,0.774933400007
0.483835106413,0.774544600007
0.525331415185,0.774051400007
0.529330456685,0.773131600007
0.547814279055,0.772666300007
0.546329461372,0.772466500007
0.564655924139,0.771967900008
0.515842409127,0.771381100008
0.492116372882,0.771179500008
0.497083583926,0.770680000008
0.541737555057,0.770445100008
0.598305825743,0.770139100008
0.611716565409,0.770062600008
0.512336859177,0.769742200008
0.505480209372,0.769264300008
0.544206382361,0.769030300008
0.507413209823,0.768772900008
0.54762457632,0.768459700008
0.475426144989,0.768306700008
0.484745814832,0.767967400008
0.513923258879,0.767719900008
0.577701990438,0.767468800008
0.560604739406,0.767205100008
0.485905620427,0.767000800008
0.527532773147,0.766575100008
0.480881163062,0.766344700008
0.590429051689,0.766246600008
0.466573558773,0.766009900008
0.460117173453,0.765520300008
0.492706736446,0.765457300008
0.513982622511,0.765231400008
0.507348176785,0.764755300008
0.591875373309,0.764609500008
0.429643913421,0.764466400008
0.506446939126,0.764115400008
0.48916187599,0.763713100008
0.468211930896,0.763404400008
0.548469623148,0.763155100008
0.556156490465,0.762611500008
0.525574188976,0.762524200008
0.519298443053,0.762337000008
0.404609879612,0.762227200008
0.468094061661,0.762088600008
0.488689259093,0.761554900008
0.495015261685,0.761167900008
0.477519962539,0.760753000008
0.51880489966,0.759996100008
0.491998989912,0.759859300008
0.568601844032,0.759767500008
0.473283855358,0.759518200008
0.553837062619,0.759343600008
0.477994563857,0.759022300008
0.483033113086,0.758601100008
0.480347500561,0.758461600008
0.520075515935,0.758370700008
0.498177077528,0.758017900008
0.487367191336,0.757790200008
0.479732496154,0.757457200008
0.484508995785,0.757168300008
0.416311820533,0.757071100008
0.472652168554,0.756919000008
0.503726972713,0.756475300008
0.46844544444,0.756379000008
0.506158328412,0.755869600008
0.514668505463,0.755610400008
0.460701463738,0.755351200008
0.468122636668,0.754766200008
0.465455037239,0.754412500008
0.468585317109,0.754216300008
0.559016780657,0.754067800008
0.49635631072,0.753728500008
0.478876927953,0.753569200008
0.536444033569,0.753287500008
0.462567710338,0.753045400008
0.554238605507,0.752872600008
0.530156861374,0.752643100008
0.503202329319,0.752337100008
0.453304520718,0.751985200008
0.484061317864,0.751539700008
0.463252793748,0.751240000008
0.444168221911,0.750991600008
0.505065266132,0.750724300008
0.481162211917,0.750457000008
0.50331113028,0.750196900008
0.469138854337,0.750086200008
0.451339036588,0.749674000008
0.510475127241,0.749269000008
0.481395944405,0.749179900008
0.514409563481,0.748964800008
0.494707170644,0.748326700008
0.515694808675,0.748010800008
0.472516416989,0.747602200008
0.4656830275,0.747229600008
0.402195101601,0.746930800008
0.512888397168,0.746468200008
0.537627011408,0.746258500008
0.539000713296,0.745630300008
0.501265648381,0.745133500008
0.529261924026,0.744904000008
0.471902450547,0.744765400008
0.489517145699,0.744364000008
0.453576266746,0.744198400008
0.584639143305,0.744076000008
0.54170552497,0.743718700008
0.504887525802,0.743098600008
0.457637492964,0.742938400008
0.505378066667,0.742402000008
0.453251144122,0.742091500008
0.507718568876,0.741954700008
0.491484220096,0.741615400009
0.47882760934,0.741473200009
0.495024407762,0.740976400009
0.50908611765,0.740654200009
0.511020997851,0.740075500009
0.515088987097,0.739675900009
0.491860214826,0.739263700009
0.48551360132,0.739055800009
0.467525358282,0.738730000009
0.516267096316,0.738197200009
0.452826364372,0.737967700009
0.484985639971,0.737827300009
0.434218219293,0.737506000009
0.490207376863,0.737086600009
0.46357422572,0.736835500009
0.495110058679,0.736480000009
0.43048388835,0.736362100009
0.466904896171,0.736260400009
0.476335857091,0.735704200009
0.506598636662,0.735555700009
0.497925250407,0.734871700009
0.446884415369,0.734608900009
0.427515705208,0.734322700009
0.466956781111,0.734242600009
0.473456638956,0.733348000009
0.487960151022,0.732842200009
0.455716826085,0.732466000009
0.509828778896,0.732209500009
0.472148219668,0.731820700009
0.471911826045,0.731263600009
0.504771294611,0.731015200009
0.454469504426,0.730248400009
0.468405819461,0.729641800009
0.447272837766,0.729284500009
0.435891932604,0.729061300009
0.443782157544,0.728807500009
0.475772403387,0.728558200009
0.44617193579,0.728389000009
0.450671282012,0.728024500009
0.460121371552,0.727723900009
0.466109001732,0.727201900009
0.433714026471,0.726946300009
0.404594299376,0.726419800009
0.500713603335,0.726219100009
0.448689252793,0.726071500009
0.499746043439,0.725870800009
0.432988076552,0.725694400009
0.493855101576,0.725495500009
0.473834068379,0.724906000009
0.460278153367,0.724519000009
0.500741050576,0.724102300009
0.467783479981,0.723701800009
0.44538469933,0.723538900009
0.463179757644,0.723246400009
0.488649642351,0.722845000009
0.460892892131,0.722503000009
0.461078954572,0.722419300009
0.43916513005,0.722034100009
0.483105344447,0.721885600009
0.500725826401,0.721785700009
0.46921712749,0.721245700009
0.473620892694,0.720823600009
0.489369985646,0.720642700009
0.450296938068,0.720455500009
0.452432552038,0.719914600009
0.488990149305,0.719703100009
0.471967900583,0.719370100009
0.445333724204,0.719200000009
0.465561831659,0.718905700009
0.435959191768,0.718655500009
0.451532831693,0.718539400009
0.478176273544,0.718371100009
0.454708792012,0.718027300009
0.454168122839,0.717862600009
0.4750015504,0.717769000009
0.469357783751,0.717517000009
0.491578582865,0.717318100009
0.474215285425,0.716987800009
0.473101661017,0.716519800009
0.508343040062,0.716373100009
0.413471716313,0.716309200009
0.464787151373,0.715572100009
0.51193302173,0.715483900009
0.427705239457,0.715354300009
0.463982031182,0.715105000009
0.441999624354,0.714930400009
0.494489995607,0.714565900009
0.473366411356,0.714019600009
0.456414269696,0.713729800009
0.455888278284,0.713449900009
0.422427515691,0.713105200009
0.454273151831,0.712842400009
0.446606052709,0.712756000009
0.468217444488,0.712303300009
0.477035185466,0.712223200009
0.516000150739,0.712135000009
0.453524378672,0.711885700009
0.473625381134,0.711711100009
0.426265591122,0.711514000009
0.434659509689,0.71115670001
0.43114707361,0.71092180001
0.485696470716,0.71085340001
0.543784646927,0.71060410001
0.585870672519,0.71049430001
0.537270203566,0.71032780001
0.587742860723,0.70981750001
0.543982293781,0.70972570001
0.57577261009,0.70950970001
0.562366140306,0.70923070001
0.579651923589,0.70902190001
0.576434811784,0.70886260001
0.552189290579,0.70844050001
0.559190664119,0.70820920001
0.544090502125,0.70772950001
0.500838123917,0.70749100001
0.56097891195,0.70678900001
0.569200511306,0.70663330001
0.570971803928,0.70637500001
0.555366415418,0.70565410001
0.570580263782,0.70558390001
0.593809830047,0.70531390001
0.535998858127,0.70483330001
0.554563183812,0.70463350001
0.536050698652,0.70413580001
0.526930170633,0.70365970001
0.559330135553,0.70352380001
0.503551193434,0.70326910001
0.539830362941,0.70305940001
0.505939029039,0.70276510001
0.51013706517,0.70216390001
0.556719214337,0.70206670001
0.589349272341,0.70181020001
0.544115417259,0.70151140001
0.54821796341,0.70140250001
0.563072342583,0.70120900001
0.577618343411,0.70100830001
0.576734377441,0.70084270001
0.561672830949,0.70068250001
0.552105942883,0.70043320001
0.503557497167,0.70021180001
0.55070348897,0.69984730001
0.556251370214,0.69958900001
0.537163196907,0.69940090001
0.527794477847,0.69924880001
0.47500386082,0.69902110001
0.490727772446,0.69882310001
0.516383714249,0.69863320001
0.537150213829,0.69822460001
0.551978113588,0.69737590001
0.523043430249,0.69731740001
0.570639196557,0.69713110001
0.526986333121,0.69697000001
0.533896734671,0.69686200001
0.549538445129,0.69636340001
0.536776786534,0.69618340001
0.452694638805,0.69610330001
0.486373860004,0.69585400001
0.517298554933,0.69569200001
0.519619299525,0.69554350001
0.500331272977,0.69528340001
0.593142383203,0.69490630001
0.598086914262,0.69476320001
0.48362955885,0.69451300001
0.51497327614,0.69439780001
0.504807046784,0.69407110001
0.52230878175,0.69366070001
0.553119629524,0.69348520001
0.496302460786,0.69339880001
0.537145632766,0.69303070001
0.465209474207,0.69288220001
0.496376263085,0.69279040001
0.502855478022,0.69237820001
0.567602341226,0.69197140001
0.517082005804,0.69163570001
0.510680234339,0.69138640001
0.493115363655,0.69121990001
0.460359083038,0.69111370001
0.50258735199,0.69074470001
0.505827188894,0.69018310001
0.488573518515,0.68982130001
0.509187254617,0.68957200001
0.549617509651,0.68938120001
0.475565807859,0.68914810001
0.496783399477,0.68887180001
0.49624035165,0.68849110001
0.52924821124,0.68835970001
0.486316331361,0.68811040001
0.545032387791,0.68790880001
0.468755707132,0.68761630001
0.475451422129,0.68730040001
0.490600229534,0.68709880001
0.509959950893,0.68686660001
0.543479453577,0.68662000001
0.467643434831,0.68646160001
0.535724048718,0.68605210001
0.543297537197,0.68580280001
0.462934584651,0.68560840001
0.541568388055,0.68541400001
0.518589655251,0.68519080001
0.527145122925,0.68486500001
0.495714923925,0.68443030001
0.5155210235,0.68417200001
0.615582814553,0.68409100001
0.536364772415,0.68389660001
0.54079111653,0.68361490001
0.539885267756,0.68327830001
0.447429007834,0.68317930001
0.518656014256,0.68254210001
0.528458617249,0.68229280001
0.49486910752,0.68196700001
0.512695749693,0.68171770001
0.48935573224,0.68161060001
0.469954882299,0.68142790001
0.489631371737,0.68117860001
0.528944073945,0.680869000011
0.485848642921,0.680668300011
0.50860387936,0.680482900011
0.49274114226,0.680283100011
0.493665427931,0.680127400011
0.480313719015,0.679878100011
0.581276703491,0.679654000011
0.519833369516,0.679547800011
0.496595315027,0.679298500011
0.501767929015,0.679123900011
0.483110220862,0.678756700011
0.502483330069,0.678505600011
0.50288450644,0.677956600011
0.477574986446,0.677722600011
0.466655919397,0.677429200011
0.503021845552,0.677215000011
0.480064955998,0.676961200011
0.487664737572,0.676421200011
0.500939626486,0.676231300011
0.573460227966,0.676170100011
0.478758182334,0.675359200011
0.534314852657,0.675050500011
0.516910199164,0.674637400011
0.520050900107,0.674364700011
0.583864670784,0.674073100011
0.574910234904,0.673982200011
0.584160096928,0.673309000011
0.579374040427,0.673228000011
0.575252728038,0.672949900011
0.628260361687,0.672714100011
0.512111616716,0.672607000011
0.497461479783,0.672476500011
0.548634996436,0.671941900011
0.564755074087,0.671512600011
0.568328560178,0.670868200011
0.533428595358,0.670618900011
0.541225609901,0.670519900011
0.53778770848,0.670245400011
0.505859495352,0.669758500011
0.511129757262,0.669546100011
0.5481522253,0.669159100011
0.525468688506,0.668829700011
0.549416477604,0.668657800011
0.540229031411,0.668140300011
0.551610908237,0.667791100011
0.522416434045,0.667371700011
0.536745254341,0.667180900011
0.524738546706,0.666930700011
0.518014132771,0.666815500011
0.452196323013,0.666646300011
0.523868764451,0.666327700011
0.488578236161,0.666163900011
0.510433549161,0.666030700011
0.563815629237,0.665803000011
0.539081000486,0.665474500011
0.573105186896,0.665241400011
0.548731679154,0.664621300011
0.535717507576,0.664241500011
0.577293406337,0.664003900011
0.562141629845,0.663558400011
0.519576264708,0.663090400011
0.533357721863,0.662772700011
0.529768990205,0.662167000011
0.490076752866,0.661636900011
0.454023807766,0.661527100011
0.518184964798,0.661235500011
0.48837437965,0.660859300011
0.485283858477,0.660662200011
0.548136115401,0.660320200011
0.628329666115,0.660188800011
0.561490998536,0.659701900011
0.527727536945,0.659378800011
0.498394424084,0.659223100011
0.538210461272,0.658916200011
0.550583458528,0.658648000011
0.523164956728,0.658351900011
0.528373764381,0.658072900011
0.530198895062,0.657775000011
0.523835274762,0.657273700011
0.498647455511,0.657085600011
0.547688444361,0.656620300011
0.529172714673,0.656462800011
0.514380417857,0.656257600011
0.498554477077,0.656002900011
0.519123206445,0.655753600011
0.522234860053,0.655319800011
0.503731035029,0.654695200011
0.490543561594,0.654414400011
0.529341078346,0.654027400011
0.506293565361,0.653497300011
0.517549146094,0.653312800011
0.494507676611,0.653053600011
0.538619953143,0.652804300011
0.517358034475,0.652703500011
0.519480647194,0.652593700011
0.505103375544,0.652160800011
0.491853533397,0.651894400011
0.488847468286,0.651624400011
0.565625347724,0.651350800011
0.524472782518,0.650880100011
0.446058613167,0.650735200011
0.501414470563,0.650505700012
0.509436718396,0.650044000012
0.510584093301,0.649855900012
0.565518503327,0.649599400012
0.457825345715,0.649417600012
0.494894308748,0.649317700012
0.464617689608,0.649108900012
0.529412948542,0.648481600012
0.50270676049,0.648393400012
0.513031921119,0.647947000012
0.522650605156,0.647597800012
0.52112104145,0.647295400012
0.499306026568,0.647033500012
0.529136439408,0.646747300012
0.483232826438,0.646555600012
0.470112293271,0.646307200012
0.514871719316,0.646067800012
0.511730894514,0.645988600012
0.532461102556,0.645769000012
0.523967784048,0.645662800012
0.479178339276,0.645449500012
0.503190601662,0.644924800012
0.511166139247,0.644621500012
0.514761517142,0.644297500012
0.507873103625,0.643818700012
0.582606498678,0.643717900012
0.515927102011,0.643520800012
0.49288926653,0.642900700012
0.525646954186,0.642729700012
0.510177010019,0.642129400012
0.536377779918,0.641747800012
0.520527885557,0.641333800012
0.497483623753,0.641034100012
0.493709252897,0.640810000012
0.559567418635,0.640631800012
0.523286737946,0.640502200012
0.517327453576,0.640174600012
0.48673584275,0.640075600012
0.504642541917,0.639885700012
0.525029222394,0.639279100012
0.463093139894,0.639195400012
0.496203686374,0.639007300012
0.478255454686,0.638726500012
