mean_loss,epsilon
0.61630666256,0.9991549
0.513073563576,0.9981892
0.49298402667,0.9971191
0.554179668427,0.9957763
0.450491070747,0.9951265
0.483683764935,0.994105
0.524285554886,0.9931663
0.467345058918,0.9926101
0.519343495369,0.9918604
0.555634975433,0.990784
0.474230140448,0.9899974
0.482019782066,0.9892315
0.494750678539,0.9885124
0.497342526913,0.9874099
0.423754692078,0.9863731
0.477722406387,0.9856675
0.43483749032,0.9849169
0.439615309238,0.984354400001
0.481816142797,0.983556100001
0.499205678701,0.982854100001
0.472313851118,0.981937900001
0.456202566624,0.981237700001
0.423089206219,0.980684200001
0.476113021374,0.979442200001
0.43214532733,0.978579100001
0.478399991989,0.977527000001
0.50068551302,0.976729600001
0.485386580229,0.976129300001
0.426498860121,0.975133000001
0.418157875538,0.974437300001
0.472900658846,0.973756000001
0.448144286871,0.972424000001
0.455645382404,0.971488900001
0.495603531599,0.970604200001
0.482984185219,0.969958900001
0.494161009789,0.968691700001
0.486082017422,0.967804300001
0.480595886707,0.966394900001
0.52475464344,0.965504800001
0.410355895758,0.964821700001
0.44527387619,0.964174600001
0.480511903763,0.963300700001
0.441268414259,0.962338600001
0.507450759411,0.961633900001
0.476971298456,0.961100200001
0.472740232944,0.960519700001
0.533260762691,0.959614300001
0.470822513103,0.959059900001
0.448781073093,0.957760300001
0.478985309601,0.956927800001
0.490585654974,0.956199700001
0.44978877902,0.955356400001
0.400166273117,0.954698500001
0.464876383543,0.953993800002
0.418999046087,0.953237800002
0.458954244852,0.952119100002
0.518292605877,0.951296500002
0.416915088892,0.950263300002
0.513035535812,0.949546000002
0.420529425144,0.948430900002
0.5066370368,0.947803600002
0.453350245953,0.946760500002
0.442294567823,0.946226800002
0.463674157858,0.945070300002
0.47034239769,0.944167600002
0.453162997961,0.943649200002
0.436453282833,0.942829300002
0.436793595552,0.942047200002
0.44117629528,0.941237200002
0.461148828268,0.940490200002
0.475179582834,0.939366100002
0.460136383772,0.938734300002
0.443391114473,0.937840600002
0.445678859949,0.937245700002
0.4576407969,0.936431200002
0.426734805107,0.935762500002
0.445533573627,0.935091100002
0.444385290146,0.934027300002
0.457804143429,0.933091300002
0.402597665787,0.932297500002
0.45042642951,0.931655800002
0.447843402624,0.930443500002
0.50272244215,0.929499400002
0.465057015419,0.928537300002
0.41945502162,0.927966700002
0.402438551188,0.927463600002
0.410053402185,0.926767000002
0.494601041079,0.926071300002
0.466589391232,0.925444900002
0.476994395256,0.924678100002
0.543518841267,0.923954500003
0.50067460537,0.923292100003
0.383055865765,0.922611700003
0.501535117626,0.921906100003
0.444058895111,0.921053800003
0.514931082726,0.920267200003
0.461712121964,0.918651700003
0.465287774801,0.918001900003
0.427434533834,0.917146000003
0.425176352262,0.916278400003
0.394913822412,0.915579100003
0.456688463688,0.914585500003
0.487965196371,0.913515400003
0.47866782546,0.912661300003
0.461638092995,0.911683000003
0.428303033113,0.910969300003
0.489785254002,0.909919900003
0.480368405581,0.908942500003
0.562344014645,0.908386300003
0.440595895052,0.907449400003
0.454947263002,0.906692500003
0.445773780346,0.906160600003
0.423170208931,0.905641300003
0.428394347429,0.905014000003
0.476290136576,0.904330900003
0.473773956299,0.903147400003
0.490816056728,0.902593900003
0.506591618061,0.902141200003
0.433874368668,0.901482400003
0.469320058823,0.900844300003
0.511854887009,0.899936200003
0.471631258726,0.899233300003
0.457889199257,0.898547500003
0.48488599062,0.897829300003
0.432045757771,0.897260500003
0.454403281212,0.896527900003
0.467906624079,0.895599100003
0.483926177025,0.894589300003
0.427732259035,0.893527300004
0.517405807972,0.892440100004
0.453712016344,0.891689500004
0.514930307865,0.890707600004
0.524764657021,0.890036200004
0.526264190674,0.889031800004
0.576670706272,0.888478300004
0.496241301298,0.887158000004
0.531389355659,0.886604500004
0.464143157005,0.885764800004
0.551836013794,0.884977300004
0.509408116341,0.883800100004
0.520844697952,0.882842500004
0.500194966793,0.882286300004
0.518264532089,0.881224300004
0.502574563026,0.880030900004
0.522409379482,0.879380200004
0.46575397253,0.878584600004
0.467224210501,0.877999600004
0.548274099827,0.877051900004
0.483409076929,0.876462400004
0.514554679394,0.875475100004
0.531278133392,0.874443700004
0.496149241924,0.873699400004
0.533947944641,0.873221500004
0.487288475037,0.871820200004
0.527419567108,0.870789700004
0.518203914165,0.869968900004
0.515794873238,0.868885300004
0.500130653381,0.868331800004
0.527064740658,0.867498400004
0.528041422367,0.866389600004
0.517594218254,0.865401400004
0.514173686504,0.864738100004
0.493082612753,0.864068500004
0.508380889893,0.862799500005
0.517764389515,0.861743800005
0.508930206299,0.860698900005
0.517355561256,0.859762900005
0.503232240677,0.858971800005
0.472112983465,0.858367000005
0.477203369141,0.857773900005
0.545126140118,0.856927000005
0.456043988466,0.855969400005
0.497665971518,0.855207100005
0.561819493771,0.854573500005
0.519996523857,0.853457500005
0.528450608253,0.852747400005
0.478858828545,0.851890600005
0.476895987988,0.851215600005
0.517854630947,0.850278700005
0.500079572201,0.849526300005
0.564753830433,0.848915200005
0.513812124729,0.848314900005
0.526490688324,0.847507600005
0.515649557114,0.846877600005
0.507926642895,0.846173800005
0.487761378288,0.844876000005
0.51828789711,0.844353100005
0.539978861809,0.843335200005
0.524436712265,0.842670100005
0.459600836039,0.841738600005
0.498613715172,0.841036600005
0.471201568842,0.840249100005
0.478932231665,0.839552500005
0.494925260544,0.838945000005
0.438006937504,0.838498600005
0.493044018745,0.837623800005
0.485999315977,0.836699500005
0.480629384518,0.835959700005
0.470920592546,0.835329700005
0.453919142485,0.834183100005
0.435161322355,0.833576500005
0.473819345236,0.832622500006
0.465998351574,0.831784600006
0.485493391752,0.830859400006
0.473628610373,0.830049400006
0.47873288393,0.829354600006
0.457038581371,0.828541900006
0.41576680541,0.827900200006
0.491751611233,0.827110000006
0.462114393711,0.826102900006
0.427026063204,0.825457600006
0.439006835222,0.824681800006
0.467466801405,0.823886200006
0.467127352953,0.822945700006
0.427077412605,0.822030400006
0.425908178091,0.820718200006
0.449824005365,0.820199800006
0.419701576233,0.819588700006
0.516631364822,0.819065800006
0.489701598883,0.818299000006
0.459715843201,0.817526800006
0.461143285036,0.816697900006
0.484024375677,0.815860900006
0.506438553333,0.815108500006
0.436457127333,0.814426300006
0.468702495098,0.813053800006
0.452420204878,0.811797400006
0.467858970165,0.810729100006
0.477227032185,0.810019900006
0.483953237534,0.809286400006
0.478478252888,0.808050700006
0.465160697699,0.806993200006
0.467806518078,0.806436100006
0.469474554062,0.805387600006
0.4490865767,0.804131200006
0.436556965113,0.803067400006
0.439966917038,0.802341100007
0.436884880066,0.801455500007
0.451754570007,0.800905600007
0.470747679472,0.800008300007
0.426507949829,0.799486300007
0.463926702738,0.798590800007
0.400284647942,0.797515300007
0.437648177147,0.796743100007
0.441738396883,0.796000600007
0.421502768993,0.795333700007
0.441695332527,0.794388700007
0.408836096525,0.793213300007
0.452853232622,0.792385300007
0.420418858528,0.791261200007
0.436009168625,0.790664500007
0.427348256111,0.789711400007
0.411548793316,0.788938300007
0.420142054558,0.787885300007
0.417222231627,0.787002400007
0.418758511543,0.786049300007
0.428525298834,0.785124100007
0.398370325565,0.784427500007
0.410399407148,0.783870400007
0.557346940041,0.782854300007
0.558042943478,0.781725700007
0.531322181225,0.780731200007
0.531799614429,0.779922100007
0.537535727024,0.779118400007
0.517913281918,0.778378600007
0.525744199753,0.777479500007
0.520765542984,0.776765800007
0.531070530415,0.776231200007
0.506442427635,0.775340200007
0.501915693283,0.774781300007
0.515809774399,0.773838100007
0.529738664627,0.772057000008
0.489485561848,0.770844700008
0.51275908947,0.770054500008
0.500492274761,0.769501000008
0.515852928162,0.768641500008
0.522796988487,0.767277100008
0.490716814995,0.766441900008
0.463453322649,0.765594100008
0.486028373241,0.764863300008
0.488383054733,0.764313400008
0.463883280754,0.763507900008
0.482421606779,0.762515200008
0.495484918356,0.761709700008
0.490389198065,0.760309300008
0.470653891563,0.759223000008
0.468728870153,0.758465200008
0.456041365862,0.757269100008
0.47540101409,0.756275500008
0.45802745223,0.755461900008
0.476011693478,0.754054300008
0.465017646551,0.753081400008
0.481577157974,0.752491900008
0.460049778223,0.751849300008
0.471450299025,0.751261600008
0.484954833984,0.750454300008
0.464781880379,0.749516500008
0.468024373055,0.747959500008
0.525424718857,0.747221500008
0.490635633469,0.746369200008
0.490472942591,0.745707700008
0.506394505501,0.744885100008
0.484447717667,0.743732200008
0.489313840866,0.742862800008
0.462490677834,0.742024900008
0.489292323589,0.741580300009
0.465075701475,0.740021500009
0.449598222971,0.738895600009
0.472344696522,0.738210700009
0.441479772329,0.737458300009
0.46258276701,0.736577200009
0.470666140318,0.736125400009
0.485755234957,0.735521500009
0.441091030836,0.734808700009
0.446944177151,0.733941100009
0.443874269724,0.732911500009
0.460465908051,0.732289600009
0.457789868116,0.730964800009
0.435205996037,0.729985600009
0.433900147676,0.729336700009
0.432598978281,0.728666200009
0.464004337788,0.727456600009
0.444941610098,0.726924700009
0.446271657944,0.725926600009
0.430706322193,0.724645900009
0.43886256218,0.723738700009
0.452220290899,0.722488600009
0.421496838331,0.721459000009
0.436162263155,0.720652600009
0.435988485813,0.719253100009
0.431636184454,0.718434100009
0.444143712521,0.717240700009
0.41909044981,0.716346100009
0.430181145668,0.715558600009
0.429168611765,0.714432700009
0.458483994007,0.713681200009
0.448570072651,0.712963900009
0.415799796581,0.712031500009
0.473056942225,0.71113150001
0.544794142246,0.71025310001
0.532047271729,0.70920910001
0.537332952023,0.70841980001
0.538471460342,0.70729210001
0.515894055367,0.70636420001
0.503025650978,0.70476220001
0.513745903969,0.70400620001
0.521522939205,0.70296040001
0.517063617706,0.70217920001
0.495745629072,0.70133680001
0.502338588238,0.70081300001
0.50105381012,0.69959260001
0.526813685894,0.69868360001
0.49757167697,0.69767470001
0.510024607182,0.69693400001
0.49682033062,0.69592510001
0.461937010288,0.69517450001
0.504460632801,0.69441670001
0.451093018055,0.69381820001
0.51628869772,0.69289210001
0.502521514893,0.69214330001
0.490836054087,0.69143410001
0.488734275103,0.69053860001
0.494606494904,0.68974570001
0.474658757448,0.68883850001
0.485405236483,0.68782330001
0.474988490343,0.68677750001
0.465405970812,0.68605660001
0.516288518906,0.68493340001
0.525439977646,0.68413510001
0.508279144764,0.68311810001
0.528138101101,0.68233870001
0.504456281662,0.68135410001
0.493988573551,0.680649400011
0.485357671976,0.679821400011
0.463604897261,0.678917800011
0.478751659393,0.678294100011
0.482040464878,0.677553400011
0.507176697254,0.676925200011
0.487501084805,0.675639100011
0.529196321964,0.674662600011
0.534380197525,0.673569100011
0.522302806377,0.672826600011
0.54888689518,0.672243400011
0.510232269764,0.671144500011
0.508167684078,0.670136500011
0.525388836861,0.669585700011
0.557903885841,0.668981800011
0.527016162872,0.668127700011
0.497911572456,0.667282600011
0.518926858902,0.665907400011
0.519955933094,0.664915600011
0.517289340496,0.664379200011
0.507382750511,0.663590800011
0.519644379616,0.662322700011
0.49581566453,0.661635100011
0.468570590019,0.660858400011
0.476689398289,0.660320200011
0.502212882042,0.659234800011
0.482913553715,0.658410400011
0.489239752293,0.657626500011
0.502208948135,0.656432200011
0.467356473207,0.655172200011
0.479636877775,0.654100300011
0.478266656399,0.653402800011
0.475481539965,0.652214800011
0.513138949871,0.651337300011
0.496758908033,0.650296000012
0.489761024714,0.649407700012
0.502866029739,0.648708400012
0.477635771036,0.648158500012
0.446655362844,0.647219800012
0.482450634241,0.645720400012
0.472638040781,0.644458600012
0.461633294821,0.642816100012
0.473618865013,0.641963800012
0.485497176647,0.641466100012
0.490154206753,0.640769500012
0.484408408403,0.639988300012
0.548453509808,0.639214300012
0.609124958515,0.638462800012
0.559797227383,0.637785100012
0.563090026379,0.636973300012
0.563427150249,0.636055300012
0.558173060417,0.635096800012
0.573835849762,0.634250800012
0.571320533752,0.633557800012
0.558561980724,0.631862200012
0.543795228004,0.631081900012
0.551910698414,0.630156700012
0.564594805241,0.629521300012
0.562619447708,0.628803100012
0.564768373966,0.627706000012
0.569588780403,0.626694400012
0.538831412792,0.625820500012
0.533959507942,0.625062700012
0.542356789112,0.624490300012
0.539189517498,0.623778400012
0.549286484718,0.622607500012
0.545842528343,0.621540100012
0.552053451538,0.621060400012
0.510276794434,0.620064100013
0.534146368504,0.618922900013
0.525234758854,0.618204700013
0.549494564533,0.617187700013
0.511779844761,0.616712500013
0.519373714924,0.615624400013
0.557633817196,0.614971000013
0.518105268478,0.614415700013
0.500874221325,0.613693900013
0.533287465572,0.612349300013
0.54953110218,0.611507800013
0.513006269932,0.610466500013
0.518909811974,0.609659200013
0.498390197754,0.608707900013
0.517832458019,0.607551400013
0.532113671303,0.606693700013
0.506813585758,0.605651500013
0.485893636942,0.604889200013
0.50322240591,0.603653500013
0.621669232845,0.602422300013
0.628723859787,0.601586200013
0.632630169392,0.600007600013
0.614633202553,0.599119300013
0.62560325861,0.598150000013
0.571706175804,0.597313000013
0.607623159885,0.596078200013
0.620794415474,0.595424800013
0.595846235752,0.594224200013
0.55862480402,0.593497000013
0.599518060684,0.592243300013
0.60952180624,0.591138100013
0.578242063522,0.590573800013
0.618627727032,0.589682800014
0.602805614471,0.588332800014
0.600153446198,0.587512900014
0.595437407494,0.586444600014
0.587733149529,0.585368200014
0.614366233349,0.584827300014
0.600932121277,0.583598800014
0.591548204422,0.582376600014
0.578801810741,0.581646700014
0.6057061553,0.580942000014
0.581363976002,0.579387700014
0.590612113476,0.577873900014
0.587144613266,0.577013500014
0.550075650215,0.576065800014
0.573696911335,0.575175700014
0.540688097477,0.574525000014
0.542104244232,0.573908500014
0.574532926083,0.572508100014
0.574838161469,0.571449700014
0.561332881451,0.570726100014
0.567368924618,0.569344600014
0.575487732887,0.568172800014
0.60652077198,0.566809300014
0.639808535576,0.565501600014
0.618880033493,0.564373900014
0.628485321999,0.563561200014
0.614757120609,0.562551400014
0.650182664394,0.561722500014
0.625043869019,0.560785600014
0.60769367218,0.560050300014
0.612004041672,0.559117900015
0.595251977444,0.558298000015
0.607121944427,0.557064100015
0.608558654785,0.556085800015
0.605298101902,0.555055300015
0.605185747147,0.553760200015
0.613318800926,0.552452500015
0.590298712254,0.551674900015
0.571768462658,0.551159200015
0.614878237247,0.549918100015
0.61353123188,0.549234100015
0.60191899538,0.548356600015
0.57046854496,0.547529500015
0.602359354496,0.546611500015
0.597329378128,0.545994100015
0.595513105392,0.544567600015
0.604348897934,0.543617200015
0.576891124249,0.542755000015
0.605200707912,0.541883800015
0.597724497318,0.541212400015
0.617675364017,0.540290800015
0.607045650482,0.539455600015
0.621279358864,0.537961600015
0.593290388584,0.537122800015
0.581147432327,0.536188600015
0.556471645832,0.535544200015
0.593301236629,0.534574000015
0.620070934296,0.533680300015
0.59506970644,0.532584100015
0.610025167465,0.530908300015
0.677942335606,0.529700500015
0.69206571579,0.528812200016
0.631417751312,0.527815000016
0.635235607624,0.526215700016
0.664157390594,0.524975500016
0.642445266247,0.523917100016
0.666296362877,0.522850600016
0.63761985302,0.521353000016
0.597706079483,0.519428800016
0.662124633789,0.518584600016
0.622532963753,0.517447900016
0.602097868919,0.516826900016
0.612023890018,0.516021400016
0.621496021748,0.515408500016
0.605936288834,0.514514800016
0.615825891495,0.513685900016
0.605938911438,0.512823700016
0.627879798412,0.511715800016
0.594247698784,0.510589900016
0.587792396545,0.509327200016
0.629042804241,0.508460500016
0.597152531147,0.507133900016
0.580383062363,0.506493100016
0.601556003094,0.505681300016
0.622632920742,0.504699400016
0.632836699486,0.503673400016
0.577975690365,0.503047000016
0.626957714558,0.502109200016
0.595343410969,0.500940100016
0.63218164444,0.500206600016
0.624960362911,0.499150900016
0.601529896259,0.498362500016
0.607438445091,0.497492200016
0.598053097725,0.496159300016
0.624486446381,0.495447400016
0.704593300819,0.494262100016
0.700003683567,0.493050700016
0.682466506958,0.491711500016
0.653131723404,0.490603600016
0.702141523361,0.489380500016
0.651512444019,0.488664100016
0.673195183277,0.487655200016
0.669244229794,0.486794800016
0.659610688686,0.485764300016
0.632114112377,0.485035300016
0.667611181736,0.484050700016
0.643524587154,0.483274900016
0.640095710754,0.481814200016
0.652654111385,0.480775600016
0.650268018246,0.480168100016
0.669736623764,0.479249200016
0.647976458073,0.477829900016
0.690648794174,0.476985700016
0.650133609772,0.476387200016
0.661612331867,0.474905800016
0.635417997837,0.473957200016
0.634104847908,0.473189500016
0.669072389603,0.471797200016
0.619331896305,0.470960200016
0.643085956573,0.469548100016
0.619576275349,0.468668800016
0.644651472569,0.467482600016
0.631116390228,0.466604200016
0.676927506924,0.465584500015
0.654993355274,0.464556700015
0.637719511986,0.463433500015
0.621546328068,0.461925100015
0.635507762432,0.461117800015
0.630737364292,0.460243900015
0.586998403072,0.459489700015
0.715350687504,0.458434900015
0.733812272549,0.457440400015
0.727053880692,0.455741200015
0.717674612999,0.455243500015
0.728984296322,0.454186000015
0.684317111969,0.453117700015
0.720989704132,0.451840600015
0.694878578186,0.450996400015
0.704436421394,0.450416800015
0.719253718853,0.449360200015
0.717738687992,0.448758100015
0.698337733746,0.446915800015
0.707227408886,0.445631500015
0.693409323692,0.444707200015
0.693466067314,0.443618200015
0.694963157177,0.442699300015
0.698911905289,0.441450100015
0.699468016624,0.440384500015
0.697759926319,0.439378300015
0.66904604435,0.438465700015
0.690402746201,0.437106700015
0.683314502239,0.436124800015
0.686035394669,0.435184300015
0.691585958004,0.434142100015
0.670862257481,0.431975800015
0.671047449112,0.430623100014
0.658442020416,0.429639400014
0.680140018463,0.428302900014
0.66617077589,0.426881800014
0.670322775841,0.426033100014
0.672269105911,0.424529200014
0.687157571316,0.423571600014
0.762195765972,0.422787700014
0.790373384953,0.421521400014
0.781817138195,0.419934700014
0.762491464615,0.418939300014
0.756746590137,0.417830500014
0.782472670078,0.416602000014
0.757787823677,0.415732600014
0.783685386181,0.414965800014
0.781027555466,0.414153100014
0.789391160011,0.413141500014
0.749187231064,0.412095700014
0.759630143642,0.410784400014
0.780983150005,0.410066200014
0.752920210361,0.409105900014
0.743851363659,0.407980900014
0.748355686665,0.406702000014
0.738471925259,0.405457300014
0.748315513134,0.404511400014
0.723544120789,0.403214500014
0.72577214241,0.402644800014
0.762399852276,0.400837600014
0.738791942596,0.399441700014
0.783971726894,0.398477800014
0.734606444836,0.397669600014
0.753034353256,0.396137800013
0.727158725262,0.394890400013
0.716294944286,0.394067800013
0.705476284027,0.393274900013
0.731289744377,0.391794400013
0.719319105148,0.390618100013
0.722299337387,0.389814400013
0.750410974026,0.388778500013
0.738522469997,0.387732700013
0.741659700871,0.386581600013
0.810111582279,0.385405300013
0.845704674721,0.384259600013
0.801820278168,0.382750300013
0.810974121094,0.381846700013
0.824890315533,0.380921500013
0.798882186413,0.379783900013
0.805352389812,0.378019000013
0.799249231815,0.376840000013
0.789302408695,0.375445000013
0.767714381218,0.374219200013
0.766127228737,0.373311100013
0.776002466679,0.372367900013
0.810039758682,0.371443600013
0.788159012794,0.370747000013
0.793509304523,0.370619200013
0.753333747387,0.369386200013
0.79056596756,0.368006500013
0.767446100712,0.366980500013
0.773314058781,0.366036400013
0.736516952515,0.365179600013
0.772494316101,0.364357000013
0.773189425468,0.363547900013
0.808989405632,0.362411200013
0.753325223923,0.361705600012
0.793052017689,0.360523000012
0.782483160496,0.360048700012
0.739076852798,0.359184700012
0.771290183067,0.358184800012
0.76790612936,0.357264100012
0.802898526192,0.355786300012
0.835891664028,0.355242700012
0.769290626049,0.354304900012
0.786780416965,0.353521900012
0.775234997272,0.352324900012
0.776806235313,0.351219700012
0.872380554676,0.349525900012
0.881316363811,0.348262300012
0.87078756094,0.347750200012
0.853199481964,0.346848400012
0.854610979557,0.345935800012
0.842900693417,0.344894500012
0.863865792751,0.343594000012
0.885943710804,0.342538300012
0.841157674789,0.341481700012
0.825268387794,0.340725700012
0.85973316431,0.339779800012
0.83578068018,0.338788000012
0.852258980274,0.337894300012
0.810659229755,0.336897100012
0.842842280865,0.335543500012
0.798140883446,0.334964800012
0.837156295776,0.333714700012
0.854390144348,0.332928100012
0.823088228703,0.331742800012
0.847638070583,0.330853600012
0.84988796711,0.329430700012
0.866680860519,0.328644100012
0.819334864616,0.327661300012
0.82667195797,0.326708200011
0.824766397476,0.325672300011
0.808315694332,0.324754300011
0.826630949974,0.323997400011
0.845216453075,0.322551100011
0.788354694843,0.321320800011
0.820564389229,0.320203000011
0.815860509872,0.318967300011
0.813618481159,0.317326600011
0.816294074059,0.316465300011
0.817643165588,0.315514900011
0.867073595524,0.314810200011
0.952132880688,0.313841800011
0.945638239384,0.312903100011
1.00529038906,0.312165100011
0.930178523064,0.310465000011
0.87887275219,0.309291400011
0.910694360733,0.308053000011
0.93228572607,0.307402300011
0.94060087204,0.306035200011
0.929090976715,0.305461900011
0.909838497639,0.303960700011
0.895249307156,0.303048100011
0.9437251091,0.302329900011
0.884382545948,0.301258900011
0.931255877018,0.300322900011
0.896223127842,0.299545300011
0.89601546526,0.298125100011
0.8513635993,0.297244900011
0.900169372559,0.295798600011
0.892974674702,0.294146200011
0.880452036858,0.293553100011
0.896913468838,0.29228770001
0.900749206543,0.29093590001
0.868886291981,0.28921240001
0.908691287041,0.28839610001
0.896820366383,0.28771570001
0.921007871628,0.28651600001
0.840727806091,0.28587790001
0.884180665016,0.28469260001
0.93288064003,0.28386100001
0.938125669956,0.28299160001
0.871866762638,0.28250650001
0.889197647572,0.28148140001
0.882554113865,0.28079380001
0.878397762775,0.28029700001
0.908864855766,0.27920350001
0.958659052849,0.27841510001
0.941382110119,0.27767080001
0.910090088844,0.27655660001
0.935880064964,0.27459460001
0.890273869038,0.27394840001
0.89365875721,0.27308890001
0.893836200237,0.27232930001
0.898518681526,0.27098380001
0.916386842728,0.26940430001
0.916759192944,0.26774470001
0.906624376774,0.26678710001
0.944911599159,0.26609860001
0.899521231651,0.26568190001
0.917841970921,0.26479900001
0.93136715889,0.26377570001
0.945910990238,0.26296030001
0.939840197563,0.26171650001
0.955560564995,0.26050690001
0.911228239536,0.25988410001
0.905594527721,0.25872310001
0.883128702641,0.257226400009
0.874730706215,0.256714300009
0.907975494862,0.255746800009
0.866392016411,0.255224800009
0.918965399265,0.254211400009
0.910486221313,0.252790300009
0.857456445694,0.252244000009
0.91700643301,0.251426800009
0.889433562756,0.249906700009
0.899810433388,0.248315500009
0.931112289429,0.247528000009
0.903565049171,0.246693700009
0.877324998379,0.245794600009
0.916741788387,0.244424800009
0.895653784275,0.243490600009
0.871753811836,0.242749900009
0.974020421505,0.241589800009
0.961509525776,0.239805100009
1.00142216682,0.238461400009
0.972987413406,0.237148300009
0.988998770714,0.236013400009
0.972180664539,0.235455400009
0.957854032516,0.234274600009
0.954734623432,0.233219800009
0.965100228786,0.231927400009
0.903875231743,0.231218200009
0.979783773422,0.230625100009
0.952356934547,0.228954700009
0.952378749847,0.228005200009
0.983983337879,0.227225800009
0.970894277096,0.225624700009
0.953580796719,0.224716600009
0.978422760963,0.224044300009
0.900837302208,0.222787000009
0.926487028599,0.221175100009
0.912424564362,0.219817000009
0.913545370102,0.218905300009
0.951480567455,0.217788400009
0.946103036404,0.216622900009
0.934371590614,0.216029800009
0.903581619263,0.214836400009
0.930201232433,0.213402700009
0.970281422138,0.212295700009
0.903337538242,0.211559500009
0.885060548782,0.209818900009
0.949256598949,0.208935100009
0.942357003689,0.207989200009
0.976867794991,0.206962300009
1.00276565552,0.206079400009
1.04497420788,0.204390100009
1.06268846989,0.203277700009
1.03657603264,0.201925900009
0.984037280083,0.201104200009
1.00552129745,0.200422000009
0.992779910564,0.199947700009
1.00679004192,0.198707500009
0.985861063004,0.197079400009
0.976850032806,0.196182100009
1.01903891563,0.195087700009
0.945974767208,0.194410900009
1.01265156269,0.193408300009
0.989368200302,0.192075400009
1.01133704185,0.191136700009
1.00209522247,0.189245800009
0.97857183218,0.187965100009
1.03426384926,0.186390100009
0.974199771881,0.185595400009
0.993611872196,0.184681000009
0.980234146118,0.183408400009
0.984519779682,0.181982800009
0.971207618713,0.181292500009
0.9601983428,0.180314200009
0.98538684845,0.178830100009
0.968202769756,0.177982300009
0.971776127815,0.176526100009
1.02106308937,0.175391200009
0.988410592079,0.174425500009
0.977909862995,0.173172700009
0.989814817905,0.171457300009
1.00582695007,0.170630200009
1.0374866724,0.169899400009
1.02573561668,0.168913900009
1.04590952396,0.168289300009
1.04679262638,0.167307400009
1.0745215416,0.165720700009
1.03007364273,0.163722700009
1.01471269131,0.162975700009
1.0562030077,0.162059500009
1.0205218792,0.160766200009
0.991295218468,0.159860800009
0.995582818985,0.158480200009
1.01639854908,0.156829600009
1.00788640976,0.156054700009
0.974081039429,0.154972000009
1.07363629341,0.154088200009
0.997651219368,0.152971300009
1.00969040394,0.151706800009
1.01357114315,0.150999400009
1.06756842136,0.149869000009
0.993223786354,0.148450600009
0.977032899857,0.147753100009
1.00202131271,0.146257300009
0.958641052246,0.145810900009
