mean_loss,epsilon
0.589375495911,0.9998605
0.669463098049,0.9992773
0.655801355839,0.9987364
0.509940683842,0.9980794
0.586494505405,0.9970525
0.605062425137,0.9960706
0.645742118359,0.9948394
0.601077437401,0.9942859
0.553661286831,0.9935173
0.55941683054,0.9924445
0.614415645599,0.9916894
0.585350990295,0.9907867
0.567870259285,0.990253
0.539026558399,0.9896995
0.619134902954,0.9889795
0.593188643456,0.9883279
0.601327240467,0.9877744
0.614093482494,0.9871228
0.573542952538,0.9865207
0.607891976833,0.9856666
0.565823435783,0.9848998
0.593747913837,0.983737900001
0.515905320644,0.983244700001
0.572227537632,0.982098100001
0.633466362953,0.981012700001
0.60165309906,0.980364700001
0.539868474007,0.979563700001
0.617849349976,0.978819400001
0.596159219742,0.977785300001
0.638899862766,0.977216500001
0.552932977676,0.976265200001
0.59524512291,0.975735100001
0.604801058769,0.974464300001
0.590802431107,0.973853200001
0.5999314785,0.973389700001
0.589792728424,0.972739900001
0.619575083256,0.972218800001
0.604708313942,0.971168500001
0.609048008919,0.970446700001
0.627006351948,0.969211900001
0.548555791378,0.968411800001
0.622533619404,0.967774600001
0.561126053333,0.966997000001
0.625783085823,0.966197800001
0.649533450603,0.965426500001
0.568513989449,0.964776700001
0.640790641308,0.963781300001
0.620402336121,0.963226900001
0.661836028099,0.962314300001
0.63791424036,0.961420600001
0.626913607121,0.960321700001
0.630240261555,0.959461300001
0.635140240192,0.958807900001
0.635132431984,0.957949300001
0.673546373844,0.957163600001
0.662054538727,0.956499400001
0.687276721001,0.955602100001
0.593563079834,0.954811000001
0.638107657433,0.954247600002
0.689527750015,0.953345800002
0.61533921957,0.952629400002
0.674154758453,0.952035400002
0.608159303665,0.951391000002
0.648246586323,0.950602600002
0.623351335526,0.949927600002
0.637516975403,0.949374100002
0.67315018177,0.948180700002
0.642127752304,0.947652400002
0.643364191055,0.947103400002
0.588450789452,0.946292500002
0.572057127953,0.945481600002
0.592120945454,0.944700400002
0.554067611694,0.944104600002
0.607923388481,0.943642000002
0.539376795292,0.942824800002
0.510537981987,0.942314500002
0.54069685936,0.941695300002
0.544004380703,0.940978900002
0.518594801426,0.940465000002
0.523643553257,0.939320200002
0.540702879429,0.938420200002
0.542868733406,0.937950400002
0.547607541084,0.937369900002
0.568237245083,0.936222400002
0.587757825851,0.935676100002
0.592885136604,0.934964200002
0.567200779915,0.933938200002
0.574425518513,0.933069700002
0.511865973473,0.932457700002
0.59040158987,0.931656700002
0.544248580933,0.930945700002
0.576304554939,0.930407500002
0.55946624279,0.929394100002
0.551575779915,0.928264600002
0.592730283737,0.927361000002
0.648541748524,0.926604100002
0.639325380325,0.925865200002
0.628348529339,0.924948100002
0.610394120216,0.924092200002
0.61632835865,0.923215600003
0.588727533817,0.922543300003
0.635611832142,0.921898900003
0.607111871243,0.920801800003
0.623649835587,0.920056600003
0.585726499557,0.919445500003
0.630397856236,0.918756100003
0.585110247135,0.917945200003
0.623774051666,0.917191900003
0.593500912189,0.916428700003
0.592748105526,0.915376600003
0.602052509785,0.914759200003
0.596119582653,0.914232700003
0.580605387688,0.913582900003
0.554880142212,0.912844900003
0.574504971504,0.912257200003
0.537842810154,0.910955800003
0.553744316101,0.910569700003
0.531479358673,0.909678700003
0.538377642632,0.908885800003
0.514300167561,0.908131600003
0.535975754261,0.907365700003
0.528947114944,0.906278500003
0.52448964119,0.905528800003
0.517688512802,0.904501900003
0.546297252178,0.903984400003
0.5433806777,0.903340900003
0.514952898026,0.902750500003
0.534779071808,0.901325800003
0.517239153385,0.900526600003
0.525608062744,0.899044300003
0.513866245747,0.897978700003
0.513900876045,0.897431500003
0.516970038414,0.896279500003
0.516714096069,0.895576600003
0.521847009659,0.894745000003
0.521619975567,0.894086200003
0.525958895683,0.893693800003
0.515770971775,0.892555300004
0.526473999023,0.891783100004
0.641442358494,0.891169300004
0.629145681858,0.890615800004
0.60652500391,0.889398100004
0.583799540997,0.888523300004
0.585217952728,0.887643100004
0.58301794529,0.886635100004
0.551981151104,0.885740500004
0.567788720131,0.884836000004
0.569434165955,0.884241100004
0.568141460419,0.883525600004
0.545681357384,0.882680500004
0.554186880589,0.881164000004
0.556548714638,0.880288300004
0.535311102867,0.879334300004
0.566905975342,0.878629600004
0.539057433605,0.877888000004
0.551474869251,0.876920500004
0.538055539131,0.875836900004
0.538131177425,0.874973800004
0.558242619038,0.874246600004
0.515807032585,0.873589600004
0.545277535915,0.872592400004
0.532032370567,0.871471000004
0.537501990795,0.870402700004
0.518271625042,0.869716900004
0.53549182415,0.868668400004
0.545146644115,0.867934000004
0.524061322212,0.866998900004
0.523212850094,0.866280700004
0.530409455299,0.865768600004
0.510263621807,0.865073800004
0.52305316925,0.864262000004
0.505782008171,0.863482600004
0.521406471729,0.862966900005
0.516323029995,0.862325200005
0.51807320118,0.861593500005
0.498297333717,0.860853700005
0.496293663979,0.860232700005
0.49239140749,0.859757500005
0.492110997438,0.858691000005
0.481243401766,0.858096100005
0.493277519941,0.857113300005
0.497256934643,0.856142200005
0.645651578903,0.855192700005
0.672229886055,0.854290000005
0.623684406281,0.853680700005
0.614638864994,0.852895000005
0.596919178963,0.851808700005
0.601912796497,0.850852000005
0.590064764023,0.849946600005
0.57379335165,0.849174400005
0.58363121748,0.848133100005
0.569889903069,0.847503100005
0.542541086674,0.846359200005
0.547328531742,0.845221600005
0.512496173382,0.844663600005
0.52475810051,0.844161400005
0.521981418133,0.842818600005
0.528343558311,0.841786300005
0.537071406841,0.840916900005
0.503505587578,0.840088900005
0.527512550354,0.838288000005
0.495826691389,0.837669700005
0.518686115742,0.837282700005
0.521183609962,0.836407900005
0.514561116695,0.835780600005
0.48352599144,0.835021900005
0.502168059349,0.832950100005
0.494129568338,0.832291300006
0.495608776808,0.831485800006
0.497712552547,0.830026900006
0.511760771275,0.829242100006
0.491081178188,0.828370900006
0.49795627594,0.827621200006
0.47608935833,0.826584400006
0.463597744703,0.825622300006
0.474240094423,0.824976100006
0.466898649931,0.824513500006
0.463490456343,0.823848400006
0.473466724157,0.822463300006
0.465869545937,0.821975500006
0.467713922262,0.821145700006
0.468809306622,0.820504000006
0.487423598766,0.820205200006
0.569414973259,0.819564400006
0.752362370491,0.818677000006
0.716374516487,0.818149600006
0.670343339443,0.817033600006
0.655666291714,0.816184900006
0.655319213867,0.815421700006
0.592949509621,0.814751200006
0.618064045906,0.814249900006
0.617102324963,0.813524500006
0.594296753407,0.812643400006
0.571613848209,0.811865800006
0.584218859673,0.811166500006
0.564547121525,0.810541000006
0.552637517452,0.809551000006
0.53766721487,0.808886800006
0.546197414398,0.807874300006
0.5419293046,0.806984200006
0.536107242107,0.806067100006
0.530772864819,0.804640600006
0.519766151905,0.803912500006
0.520041286945,0.802739800006
0.52063113451,0.801703900007
0.530800402164,0.800967700007
0.531488120556,0.799036300007
0.545873045921,0.798036400007
0.541798532009,0.796504600007
0.552829027176,0.796029400007
0.539381802082,0.795263500007
0.549654185772,0.794416600007
0.501636683941,0.793727200007
0.501873016357,0.792791200007
0.517524778843,0.791461000007
0.513737678528,0.790627600007
0.514929592609,0.789642100007
0.513663887978,0.788710600007
0.52137196064,0.787528000007
0.562437474728,0.787069000007
0.483046591282,0.786270700007
0.489168345928,0.785401300007
0.502845942974,0.784640800007
0.478479355574,0.783695800007
0.815537333488,0.782900200007
0.785969674587,0.782256700007
0.757116615772,0.781846300007
0.694160699844,0.781118200007
0.712006986141,0.780292900007
0.681252002716,0.779471200007
0.668792963028,0.778525300007
0.651979863644,0.776925100007
0.608607232571,0.776117800007
0.6117400527,0.774846100007
0.575730383396,0.774152200007
0.584914624691,0.773467300007
0.588898360729,0.772728400007
0.54879117012,0.771752800008
0.538482010365,0.771170500008
0.544962584972,0.770427100008
0.564552724361,0.769508200008
0.552296459675,0.768736900008
0.560206532478,0.767872000008
0.570810258389,0.766909900008
0.554032802582,0.766373500008
0.53770750761,0.765847000008
0.543593406677,0.764510500008
0.556948661804,0.763840900008
0.543518304825,0.763039900008
0.522365748882,0.761951800008
0.528536736965,0.761423500008
0.505334019661,0.760691800008
0.521481454372,0.760177900008
0.496388405561,0.759575800008
0.51254761219,0.758681200008
0.492978423834,0.757899100008
0.474311202765,0.757036000008
0.466011613607,0.756076600008
0.454525023699,0.755307100008
0.464575350285,0.754408000008
0.444275826216,0.753393700008
0.451004743576,0.752736700008
0.458838701248,0.751941100008
0.463212609291,0.751226500008
0.465624332428,0.750234700008
0.443308800459,0.749708200008
0.447522699833,0.749116000008
0.447271078825,0.747925300008
0.72619086504,0.747072100008
0.810864925385,0.745907500008
0.742036104202,0.745271200008
0.709509789944,0.744127300008
0.716896057129,0.743443300008
0.695812821388,0.742465000008
0.679182112217,0.741831400008
0.623930573463,0.741243700009
0.651243507862,0.740312200009
0.638521611691,0.739422100009
0.659493386745,0.738531100009
0.618244767189,0.737591500009
0.622184216976,0.736351300009
0.630499660969,0.735828400009
0.588601708412,0.734808700009
0.588594794273,0.733928500009
0.598093450069,0.732627100009
0.606591939926,0.731412100009
0.641762971878,0.730514800009
0.629850566387,0.729907300009
0.596495628357,0.729117100009
0.601711511612,0.728128900009
0.58427208662,0.726969700009
0.592086672783,0.726104800009
0.568027198315,0.724807000009
0.610355615616,0.724092400009
0.586849689484,0.723430900009
0.581084489822,0.722118700009
0.58363032341,0.721329400009
0.569912433624,0.720232300009
0.574251711369,0.719617600009
0.578108489513,0.718783300009
0.588748574257,0.717417100009
0.562644720078,0.716318200009
0.606479406357,0.715582900009
0.564023911953,0.714709900009
0.564763605595,0.713881900009
0.561639249325,0.713399500009
0.571944117546,0.712118800009
0.709203481674,0.71135470001
0.977805912495,0.71062660001
0.896140813828,0.71016580001
