epoch,num_episodes,total_reward,reward_per_epoch,mean_q
1,113,840,7.43362831858,0.59854022624
2,91,38260,420.43956044,0.933443768919
3,153,28320,185.098039216,1.29637177096
4,121,45000,371.900826446,1.68710162665
5,80,49680,621.0,2.15372237962
6,70,75800,1082.85714286,2.40485097902
7,106,63560,599.622641509,2.68434195506
8,72,72080,1001.11111111,2.87599285827
9,61,62740,1028.52459016,3.09034349807
10,71,80780,1137.74647887,3.26598542326
11,61,84520,1385.57377049,3.55987361449
12,78,76400,979.487179487,3.80949609431
13,66,76940,1165.75757576,4.05036894539
14,68,73600,1082.35294118,4.16040635382
15,66,69420,1051.81818182,4.30962826771
16,83,68140,820.963855422,4.48930718601
17,59,82000,1389.83050847,4.64740724949
18,71,59900,843.661971831,4.71595618781
19,58,85620,1476.20689655,4.82959519453
20,80,62800,785.0,4.91403494596
