epoch,num_episodes,total_reward,reward_per_epoch,mean_q
1,136,28060,206.323529412,0.561683017248
2,125,52760,422.08,1.18239408587
3,127,61920,487.559055118,1.82929201348
4,134,48100,358.955223881,2.24337950102
5,122,61080,500.655737705,2.79505781484
