mean_loss,epsilon
0.450194388628,0.9998803
0.298065781593,0.9993403
0.291739106178,0.9986896
0.24912391603,0.9979282
0.275158435106,0.9969994
0.226501882076,0.9966106
0.233119547367,0.9937549
0.215412050486,0.9916129
0.217829227448,0.991036
0.211793199182,0.9866818
0.189356476068,0.9860347
0.216855749488,0.9851419
0.190662786365,0.984568600001
0.249973610044,0.984010600001
0.191124469042,0.982052200001
0.199729382992,0.981229600001
0.207194328308,0.980695900001
0.221668958664,0.980044300001
0.209698691964,0.979519600001
0.20510584116,0.977482000001
0.208324000239,0.973542700001
0.192231610417,0.972943300001
0.274152070284,0.972184600001
0.236999407411,0.971627500001
0.194000273943,0.969319900001
0.252370715141,0.968537800001
0.181077435613,0.967933000001
0.170005142689,0.967533400001
0.220339745283,0.967018600001
0.193304121494,0.966270700001
0.166834577918,0.965743300001
0.155063837767,0.964767700001
0.187521651387,0.963878500001
0.189853295684,0.962753500001
0.190510362387,0.960505300001
0.210422024131,0.959911300001
0.179912567139,0.959196700001
0.175994709134,0.958626100001
0.201556861401,0.957322900001
0.224956467748,0.956762200001
0.183965742588,0.955290700001
0.182271942496,0.954404200002
0.233701840043,0.953677000002
0.222665205598,0.953117200002
0.199506357312,0.952586200002
0.21263076365,0.952084000002
0.21046435833,0.951346900002
0.237194657326,0.950176900002
0.1856123209,0.949341700002
0.200753748417,0.948815200002
0.261828392744,0.948291400002
0.282915681601,0.947920600002
0.236248597503,0.947326600002
0.217381924391,0.944688700002
0.205189034343,0.943898500002
0.184163436294,0.943396300002
0.186708465219,0.942778000002
0.22695505619,0.941325400002
0.206421613693,0.938999800002
0.205303758383,0.938475100002
0.243276506662,0.937964800002
0.179089799523,0.937486900002
0.197915792465,0.937112500002
0.179643720388,0.936422200002
0.131121128798,0.935930800002
0.269571065903,0.935540200002
0.157572552562,0.934842700002
0.198614567518,0.934276600002
0.178110644221,0.932931100002
0.199247986078,0.930839500002
0.195298656821,0.929912500002
0.248763501644,0.929393200002
0.2227255404,0.928590400002
0.203811645508,0.927819100002
0.22134129703,0.926809300002
0.200459182262,0.926423200002
0.219600126147,0.924590800002
0.198370888829,0.923770000003
0.233069509268,0.923066200003
0.226702049375,0.921360700003
0.225469201803,0.920863900003
0.202514067292,0.920276200003
0.193270817399,0.919489600003
0.198007628322,0.918698500003
0.182457730174,0.917794900003
0.231464579701,0.916966000003
0.240629151464,0.916365700003
0.185741409659,0.915802300003
0.214349851012,0.915121000003
0.234418183565,0.914627800003
0.231376871467,0.910988200003
0.210116386414,0.909326800003
0.21005089581,0.908637400003
0.192858532071,0.907983100003
0.199202358723,0.903484000003
0.17347022891,0.902148400003
0.217934012413,0.900908200003
0.1897700876,0.899194600003
0.196709066629,0.898054300003
0.206696778536,0.895985200003
0.180961787701,0.895221100003
0.244591489434,0.894613600003
0.200971081853,0.893356300004
0.18939948082,0.892720000004
0.22199857235,0.890175700004
0.186116471887,0.889366600004
0.212199658155,0.887998600004
0.266408622265,0.887530600004
0.262910276651,0.886618900004
0.160306245089,0.886267900004
0.197941839695,0.885700000004
0.203849196434,0.883231300004
0.233661621809,0.881587900004
0.223815217614,0.880997500004
0.223673000932,0.880565500004
0.255941301584,0.879790600004
0.22575737536,0.878964400004
0.228674590588,0.877240900004
0.202361226082,0.876581200004
0.226407527924,0.875580400004
0.217452332377,0.873781300004
0.211987018585,0.873139600004
0.219133600593,0.872213500004
0.240073755383,0.871595200004
0.200247690082,0.870627700004
0.235503062606,0.869560300004
0.230403363705,0.868888900004
0.264258384705,0.868399300004
0.230688557029,0.867233800004
0.220438376069,0.865917100004
0.181433498859,0.865194400004
0.225514173508,0.864678700004
0.225709617138,0.862121800005
0.167582422495,0.861527800005
0.185464411974,0.860751100005
0.187943279743,0.860038300005
0.204302981496,0.858989800005
0.218401938677,0.858349900005
0.260193198919,0.857815300005
0.270951718092,0.857107000005
0.245291367173,0.856605700005
0.230297774076,0.856062100005
0.226527065039,0.855653500005
0.293419241905,0.855218800005
0.239632710814,0.854722900005
0.225755780935,0.854276500005
0.239713415504,0.853372900005
0.22252984345,0.851356000005
0.179521292448,0.850721500005
0.220995515585,0.850357900005
0.226147070527,0.849080800005
0.226667165756,0.846928900005
0.213517829776,0.846339400005
0.253119528294,0.845728300005
0.191194266081,0.845076700005
0.225846841931,0.842676400005
0.244624972343,0.841759300005
0.155665323138,0.841266100005
0.204287141562,0.840464200005
0.249284520745,0.839746000005
0.217684701085,0.838387000005
0.196351677179,0.837857800005
0.235455751419,0.834838300005
0.226372465491,0.834288400005
0.205504894257,0.833751100005
0.228352949023,0.832971700005
0.239142715931,0.832051900006
0.2280279845,0.831058300006
0.214265242219,0.830526400006
0.252205193043,0.829947700006
0.227272063494,0.829158400006
0.219073593616,0.827236000006
0.189057558775,0.826731100006
0.2067168504,0.824347000006
0.232426017523,0.823804300006
0.234078258276,0.822506500006
0.211109876633,0.821968300006
0.220337316394,0.820819000006
0.245069012046,0.820293400006
0.147578299046,0.820166500006
0.231619268656,0.819358300006
0.221727281809,0.818631100006
0.248641952872,0.817309000006
0.236193105578,0.816283900006
0.241213917732,0.814290400006
0.221574962139,0.813328300006
0.187041550875,0.812643400006
0.161912292242,0.812233900006
0.237919434905,0.810830800006
0.233556240797,0.810338500006
0.23223079741,0.809807500006
0.168759763241,0.809317000006
0.196057960391,0.808728400006
0.200806930661,0.806678200006
0.211672410369,0.805927600006
0.186736166477,0.805361500006
0.257894068956,0.804754000006
0.21505895257,0.804282400006
0.213508471847,0.803079100006
0.261075854301,0.802505800007
0.225640028715,0.801888400007
0.250382333994,0.800434900007
0.198780313134,0.799500700007
0.235566034913,0.798848200007
0.220007136464,0.798298300007
0.220871821046,0.797497300007
0.236421316862,0.796591900007
0.179998919368,0.796024900007
0.199720084667,0.795128500007
0.229860946536,0.794413900007
0.215566948056,0.793092700007
0.195718482137,0.792175600007
0.249522894621,0.791670700007
0.222327977419,0.791173900007
0.191759511828,0.790444000007
0.186665162444,0.789832000007
0.237976923585,0.789101200007
0.25296702981,0.786014200007
0.21197488904,0.785496700007
0.244328275323,0.784487800007
0.271583050489,0.783884800007
0.26439884305,0.783205300007
0.248228549957,0.782020000007
0.234437078238,0.780239800007
0.245834738016,0.779457700007
0.233623445034,0.779032000007
0.242161974311,0.777855700007
0.291499406099,0.777160000007
0.273665040731,0.775865800007
0.251959651709,0.772532200007
0.244883969426,0.771769000008
0.231045365334,0.770789800008
0.275696277618,0.770094100008
0.267152100801,0.769143700008
0.276497155428,0.768341800008
0.231020435691,0.767574100008
0.253423601389,0.763445800008
0.252635717392,0.762428800008
0.211522310972,0.761802400008
0.239180654287,0.760985200008
0.223518118262,0.759919600008
0.265539556742,0.759262600008
0.24838873744,0.758148400008
0.210958823562,0.757666900008
0.261817961931,0.756999100008
0.252060413361,0.756409600008
0.201707094908,0.755205400008
0.277547180653,0.754063300008
0.322060823441,0.753099400008
0.25997877121,0.752284000008
0.223341166973,0.751448800008
0.205083966255,0.751087000008
0.257005214691,0.749255500008
0.190098106861,0.748912600008
0.284214526415,0.748478800008
0.274013489485,0.746732800008
0.239730775356,0.745948000008
0.261400520802,0.744944500008
0.290889978409,0.744166000008
0.245825871825,0.742830400008
0.223097592592,0.742234600008
0.281520038843,0.741732400009
0.243673890829,0.740929600009
0.255897343159,0.737968600009
0.256610453129,0.735986800009
0.239999979734,0.735013900009
0.209761962295,0.734644000009
0.270280510187,0.734124700009
0.263723522425,0.733036600009
0.251422613859,0.731425600009
0.292306900024,0.730887400009
0.274354875088,0.729970300009
0.257683843374,0.729045100009
0.236259534955,0.728308000009
0.239538118243,0.727362100009
0.332879543304,0.726924700009
0.243984743953,0.724287700009
0.273545056581,0.723478600009
0.258442640305,0.720121600009
0.225696727633,0.719705800009
0.210093706846,0.719167600009
0.30788475275,0.718391800009
0.225803524256,0.717547600009
0.26223051548,0.714456100009
0.314228236675,0.713737900009
0.219684407115,0.713162800009
0.221044689417,0.712747000009
0.265279710293,0.712174600009
0.230303764343,0.711520300009
0.273400783539,0.71056900001
0.247383072972,0.70930720001
0.232735544443,0.70852420001
0.269577175379,0.70760620001
0.24663412571,0.70663600001
0.260676473379,0.70625350001
0.295508384705,0.70551100001
0.241301909089,0.70322590001
0.273089230061,0.70282000001
0.26527133584,0.70222690001
0.28981846571,0.70121080001
0.281316757202,0.70022980001
0.244410932064,0.69843520001
0.299228578806,0.69789520001
0.287877678871,0.69702130001
0.267733693123,0.69621220001
0.294861495495,0.69546520001
0.321831554174,0.69506830001
0.25464451313,0.69378310001
0.276507437229,0.69255370001
0.285095840693,0.69197770001
0.347584545612,0.69111730001
0.254605442286,0.69020470001
0.29376667738,0.68944780001
0.281496703625,0.68790880001
0.293887913227,0.68729500001
0.291295468807,0.68594050001
0.284077346325,0.68541040001
0.301253318787,0.68466250001
0.300530403852,0.68404780001
0.329011023045,0.68357710001
0.306584089994,0.68247280001
0.301032036543,0.68153950001
0.230743959546,0.680937400011
0.316573143005,0.679832200011
0.273676484823,0.679200400011
0.288075625896,0.677293300011
0.298773378134,0.672408100011
0.27614185214,0.671725900011
0.361464887857,0.671156200011
0.273873835802,0.670442500011
0.396544575691,0.669523600011
0.346801459789,0.668429200011
0.311637312174,0.667804600011
0.315914213657,0.666600400011
0.300599932671,0.666019000011
0.297851115465,0.665671600011
0.310843080282,0.663436900011
0.288261324167,0.662733100011
0.330413371325,0.661860100011
0.321016460657,0.661356100011
0.310540616512,0.659942200011
0.322920531034,0.659625400011
0.311021208763,0.659118700011
0.317110598087,0.656935300011
0.321236014366,0.655747300011
0.24630266428,0.655012000011
0.328347653151,0.653863600011
0.27742806077,0.652875400011
0.277194589376,0.652330000011
0.302023202181,0.651523600011
0.252389580011,0.650234800012
0.322564095259,0.649806400012
0.310422241688,0.648950500012
0.329867124557,0.648423100012
0.292126893997,0.647081200012
0.311262696981,0.645922900012
0.336351275444,0.644753800012
0.280000984669,0.643885300012
0.286693900824,0.643069000012
0.271852135658,0.642289600012
0.266987204552,0.641494900012
0.359901428223,0.640633600012
0.311707049608,0.639754300012
0.270643353462,0.638897500012
0.327759623528,0.638049700012
0.295878559351,0.636935500012
0.329658448696,0.636058000012
0.321670055389,0.635188600012
0.322560578585,0.634708900012
0.306024730206,0.634020400012
0.336741477251,0.633160000012
0.301640570164,0.632476900012
0.282479375601,0.632115100012
0.307133376598,0.631580500012
0.312592625618,0.630754300012
0.381579458714,0.630352900012
0.288397967815,0.629966800012
0.335786014795,0.629287300012
0.281410723925,0.628886800012
0.287426650524,0.628031800012
0.269641578197,0.627078700012
0.329261273146,0.626020300012
0.305994212627,0.624335500012
0.320291310549,0.623924200012
0.327341854572,0.622231300012
0.301553875208,0.621370000012
0.374627709389,0.620813800012
0.323147952557,0.620137900013
0.336176753044,0.619160500013
0.359288305044,0.618345100013
0.306782841682,0.617639500013
0.282331645489,0.616742200013
0.32462221384,0.615475900013
0.313351333141,0.615035800013
0.387672334909,0.614413000013
0.358479648829,0.613802800013
0.332828849554,0.613160200013
0.322290748358,0.612548200013
0.330072790384,0.611598700013
0.330008476973,0.610440400013
0.345589160919,0.608922100013
0.328266620636,0.607195900013
0.389570623636,0.606691000013
0.325233012438,0.605827000013
0.341594964266,0.605039500013
0.338077545166,0.604259200013
0.318932414055,0.602812000013
0.352296888828,0.602375500013
0.304291218519,0.601835500013
0.331788957119,0.600962500013
0.311514884233,0.600085000013
0.329171329737,0.599627800013
0.327133178711,0.599076100013
0.292245864868,0.598447000013
0.333380281925,0.597809800013
0.315063208342,0.596970100013
0.319888353348,0.596355400013
0.326111167669,0.595380700013
0.333733826876,0.594954100013
0.377622038126,0.594484300013
0.344636529684,0.593540200013
0.344715237617,0.593013700013
0.351851046085,0.591176800013
0.380974113941,0.590247100013
0.359938144684,0.589501000014
0.377627938986,0.588897100014
0.327458053827,0.588298600014
0.32419615984,0.587328400014
0.406887859106,0.586678600014
0.312253504992,0.585904600014
0.312734276056,0.585334000014
0.357312709093,0.584302600014
0.291551172733,0.583565500014
0.350923925638,0.582726700014
0.328835099936,0.581398300014
0.366982638836,0.580378600014
0.355122476816,0.579819700014
0.339964687824,0.579208600014
0.33105006814,0.578482300014
0.334654837847,0.577936900014
0.315700173378,0.576788500014
0.292623817921,0.576449200014
0.336614489555,0.575065900014
0.358842372894,0.574525000014
0.339406549931,0.573125500014
0.366437137127,0.572005000014
0.336947709322,0.569689300014
0.330577164888,0.568845100014
0.350524395704,0.566839900014
0.330764532089,0.566166700014
0.388004988432,0.565385500014
0.367688894272,0.562318300014
0.353216975927,0.561619900014
0.387098789215,0.560575900014
0.398121863604,0.560009800014
0.329431653023,0.558826300015
0.336118519306,0.558244900015
0.277613997459,0.557813800015
0.33761999011,0.557118100015
0.333607763052,0.556437700015
0.350316345692,0.554569300015
0.324046492577,0.554173300015
0.319526731968,0.553417300015
0.348885655403,0.552496600015
0.355001956224,0.551902600015
0.325199961662,0.551358100015
0.343958377838,0.550842400015
0.362985908985,0.549951400015
0.375169157982,0.549428500015
0.407010018826,0.548618500015
0.390853524208,0.548138800015
0.340513974428,0.547598800015
0.330604910851,0.547043500015
0.339960962534,0.546508000015
0.37295293808,0.543966400015
0.356559067965,0.543043000015
0.351424664259,0.541768600015
0.384641170502,0.541386100015
0.371935367584,0.539158600015
0.41511952877,0.538185700015
0.359273016453,0.537664600015
0.370461493731,0.536197600015
0.382921934128,0.535384000015
0.338530778885,0.534241000015
0.397324055433,0.533483200015
0.412946671247,0.532834300015
0.356657594442,0.531767800015
0.383504241705,0.531162100015
0.440077155828,0.530603200015
0.362174630165,0.530140600015
0.356227010489,0.529498900015
0.39177724719,0.528608800016
0.342351466417,0.527949100016
0.380861461163,0.526737700016
0.364665657282,0.526171600016
0.420853316784,0.525314800016
0.423339813948,0.524603800016
0.35683915019,0.524218600016
0.357607364655,0.522948700016
0.355871528387,0.522138700016
0.302635550499,0.521544700016
0.378015458584,0.520919200016
0.387372255325,0.519081400016
0.328862696886,0.518276800016
0.36505869031,0.516410200016
0.370250165462,0.515655100016
0.375165760517,0.513211600016
0.359843254089,0.512501500016
0.370536535978,0.511101100016
0.334337085485,0.510495400016
0.310936510563,0.509618800016
0.424056649208,0.509004100016
0.35736322403,0.508193200016
0.355761706829,0.507524500016
0.414892107248,0.507056500016
0.386821627617,0.505774900016
0.32591381669,0.505084600016
0.458706140518,0.504614800016
0.448460131884,0.504017200016
0.370229095221,0.502623100016
0.412665307522,0.501658300016
0.414660990238,0.500863600016
0.441468298435,0.500161600016
0.352118402719,0.499150900016
0.374104142189,0.498406600016
0.384060680866,0.497719000016
0.401653766632,0.496777600016
0.394836008549,0.496259200016
0.374598711729,0.495505900016
0.350721031427,0.494146900016
0.374964594841,0.492007600016
0.442979186773,0.491409100016
0.383438766003,0.490150900016
0.408672600985,0.488542600016
0.385499596596,0.487591300016
0.374528795481,0.486958600016
0.3740927279,0.486462700016
0.350755900145,0.486060400016
0.337373703718,0.485208100016
0.366661220789,0.484127200016
0.419073611498,0.483252400016
0.433836102486,0.482638600016
0.426899403334,0.481268800016
0.435967504978,0.480797200016
0.406728804111,0.479877400016
0.366581827402,0.479423800016
0.387039273977,0.477705700016
0.356439679861,0.476842600016
0.404501736164,0.473905900016
0.398369342089,0.473366800016
0.394965738058,0.472653100016
0.416473597288,0.472152700016
0.411956191063,0.471030400016
0.38664779067,0.470176300016
0.436482459307,0.469567000016
0.378161102533,0.469040500016
0.443974226713,0.468384400016
0.388748705387,0.467759800016
0.431156665087,0.467039800016
0.407703071833,0.465983200015
0.372367471457,0.463627900015
0.37177464366,0.463057300015
0.401594609022,0.462227500015
0.408601492643,0.461339200015
0.419924616814,0.459526600015
0.462075531483,0.458544700015
0.386028707027,0.458128900015
0.434425860643,0.457117300015
0.371374040842,0.456154300015
0.450617462397,0.455664700015
0.381182968616,0.454690900015
0.335320651531,0.454249900015
0.436519801617,0.453872800015
0.402288407087,0.453515500015
0.432157874107,0.452983600015
0.440066337585,0.451901800015
0.390156269073,0.451083700015
0.407745271921,0.450377200015
0.401116102934,0.449569900015
0.420344263315,0.448743700015
0.365523964167,0.447725800015
0.385700047016,0.446905900015
0.420171290636,0.446091400015
0.415375292301,0.445376800015
0.420209497213,0.444787300015
0.389271497726,0.443618200015
0.413225352764,0.442896400015
0.423081368208,0.441908200015
0.43046054244,0.441014500015
0.397712826729,0.440341300015
0.42240062356,0.439586200015
0.431483834982,0.438254200015
0.447967261076,0.437471200015
0.399468183517,0.436595500015
0.416858702898,0.436189600015
0.41386783123,0.434801800015
0.418568938971,0.433386100015
0.410598039627,0.432780400015
0.429286241531,0.431666200014
0.404726803303,0.431193700014
0.390472114086,0.429490000014
0.398163318634,0.428691700014
0.334226578474,0.428029300014
0.411093205214,0.426958300014
0.508902072906,0.426502000014
0.407024979591,0.425418400014
0.444548010826,0.424761400014
0.444367498159,0.424125100014
0.391678482294,0.423384400014
0.422284185886,0.422602300014
0.465505123138,0.421877800014
0.479471594095,0.421371100014
0.392577975988,0.420631300014
0.45519772172,0.420018400014
0.418785959482,0.419215600014
0.361132591963,0.418438000014
0.374358743429,0.417259900014
0.445736467838,0.416368000014
0.441074728966,0.415485100014
0.42767137289,0.414811000014
0.377402961254,0.414144100014
0.44657844305,0.413388100014
0.378889232874,0.412759000014
0.443699628115,0.412012000014
0.415241867304,0.411453100014
0.397524833679,0.410380300014
0.393224537373,0.409720600014
0.391996502876,0.409039300014
0.422136515379,0.408555100014
0.391421377659,0.407582200014
0.408509045839,0.407197000014
0.44521817565,0.406771300014
0.412298470736,0.406003600014
0.444805055857,0.405344800014
0.465598076582,0.404679700014
0.405029863119,0.404003800014
0.426556736231,0.403271200014
0.388667196035,0.401933800014
0.451302498579,0.400951000014
0.431672096252,0.400205800014
0.436585873365,0.399515500014
0.382526248693,0.398802700014
0.470949918032,0.398149300014
0.403632968664,0.397407700014
0.445161730051,0.396776800013
0.465523928404,0.395828200013
0.479730188847,0.395402500013
0.39693903923,0.394405300013
0.414776712656,0.393694300013
0.385085910559,0.392894200013
0.379634916782,0.392069800013
0.449106186628,0.391198600013
0.49102640152,0.390771100013
0.403329133987,0.390211300013
0.400459587574,0.389061100013
0.386408269405,0.388233100013
0.411305814981,0.387388900013
0.434705525637,0.386399800013
0.381188839674,0.385948000013
0.469375312328,0.385172200013
0.460517436266,0.383924800013
0.330886304379,0.383219200013
0.398272007704,0.382439800013
0.429593116045,0.381376000013
0.390393644571,0.380817100013
0.43846976757,0.380281600013
0.472973585129,0.379807300013
0.482327073812,0.379322200013
0.413141161203,0.378671500013
0.46433109045,0.377757100013
0.460391104221,0.376912000013
0.430256634951,0.375852700013
0.375013738871,0.375051700013
0.439167141914,0.374145400013
0.412272661924,0.373455100013
0.444153219461,0.372678400013
0.448175996542,0.371539000013
0.352407813072,0.371124100013
0.451593279839,0.370618300013
0.43618324399,0.369967600013
0.444205313921,0.368584300013
0.457145780325,0.368020000013
0.391100764275,0.367326100013
0.370043128729,0.366687100013
0.450796157122,0.366001300013
0.492849677801,0.365437000013
0.450407117605,0.364722400013
0.475701093674,0.363277900013
0.422380924225,0.362468800013
0.454948991537,0.361508500012
0.404421299696,0.360899200012
0.430813103914,0.359826400012
0.380231678486,0.359151400012
0.502954721451,0.358502500012
0.445343375206,0.357888700012
0.474952638149,0.356856400012
0.472683101892,0.356122000012
0.425834089518,0.355374100012
0.410862922668,0.354796300012
0.372890412807,0.354057400012
0.423767656088,0.353475100012
0.453618913889,0.352681300012
0.443572342396,0.351162100012
0.412427872419,0.349590700012
0.400735676289,0.348956200012
0.463063061237,0.348470200012
0.457940518856,0.347537800012
0.459417939186,0.346671100012
0.451222121716,0.346207600012
0.440572291613,0.345225700012
0.501918673515,0.344677600012
0.446985185146,0.343495000012
0.475283563137,0.342597700012
0.433774679899,0.341488000012
0.452515363693,0.340800400012
0.504775464535,0.340207300012
0.472044497728,0.339434200012
0.446294724941,0.338605300012
0.436526924372,0.337926700012
0.436358302832,0.337232800012
0.418891370296,0.336395800012
0.42429202795,0.335397700012
0.441327303648,0.334766800012
0.40542691946,0.334251100012
0.455187261105,0.333796600012
0.422398000956,0.333065800012
0.430474579334,0.332324200012
0.478505373001,0.331651900012
0.434006780386,0.330904000012
0.454331189394,0.330272200012
0.488785266876,0.329692600012
0.441967755556,0.328690900012
0.455685704947,0.327713500012
0.449001967907,0.327173500011
0.429332435131,0.324429400011
0.366952568293,0.323939800011
0.458630949259,0.323240500011
0.466526001692,0.321763600011
0.432210475206,0.320971600011
0.462101876736,0.320118400011
0.422566562891,0.319021300011
0.425318241119,0.318156400011
0.508638381958,0.317291500011
0.465915709734,0.316762300011
0.446521699429,0.315808300011
0.465432465076,0.315369100011
0.480299830437,0.313646500011
0.465954124928,0.312966100011
0.457330882549,0.311172400011
0.435474425554,0.310288600011
0.509866654873,0.309806200011
0.451280266047,0.308688400011
0.394251167774,0.308105200011
0.487146943808,0.307580500011
0.466010957956,0.306732700011
0.4082275033,0.306027100011
0.473818510771,0.305284600011
0.472544938326,0.304321600011
0.440537005663,0.303446800011
0.466935068369,0.302814100011
0.493950009346,0.302046400011
0.459132671356,0.301233700011
0.451305001974,0.300421900011
0.425659775734,0.299980900011
0.462213724852,0.299352700011
0.481265693903,0.298577800011
0.489885181189,0.297602200011
0.477263092995,0.297060400011
0.446927696466,0.296245900011
0.458002209663,0.295470100011
0.432724893093,0.294850000011
0.501341164112,0.294234400011
0.549475312233,0.293890600011
0.431824743748,0.292951000011
0.468958646059,0.29242000001
0.458512723446,0.29165050001
0.45530050993,0.29094130001
0.434848964214,0.29011510001
0.474710583687,0.28906570001
0.440256565809,0.28849150001
0.479904770851,0.28779220001
0.421538472176,0.28726480001
0.47298386693,0.28633240001
0.480562269688,0.28481590001
0.436817198992,0.28392490001
0.44692927599,0.28223470001
0.47893384099,0.28114030001
0.468516469002,0.28040320001
0.460291385651,0.27937450001
0.447456151247,0.27826480001
0.467549055815,0.27698590001
0.414504498243,0.27648820001
0.488712012768,0.27504820001
0.499869257212,0.27460990001
0.411299824715,0.27411490001
0.441288590431,0.27323110001
0.452911973,0.27166420001
0.460177838802,0.27117190001
0.481965512037,0.26998660001
0.432389557362,0.26924140001
0.479343742132,0.26881300001
0.497918665409,0.26816050001
0.477853387594,0.26765650001
0.439630836248,0.26710030001
0.496087431908,0.26623720001
0.439171910286,0.26554060001
0.492928773165,0.26494930001
0.461122483015,0.26424190001
0.503257215023,0.26345710001
0.455591887236,0.26294500001
0.497529298067,0.26227540001
0.501060068607,0.26182090001
0.3659324646,0.26117200001
0.410278975964,0.26000110001
0.52348524332,0.25911460001
0.504967868328,0.25855390001
0.411458283663,0.25804360001
0.487073600292,0.257679100009
0.45929569006,0.256919500009
0.507058799267,0.255989800009
0.501795649529,0.255312100009
0.454235672951,0.253793800009
0.440302908421,0.252833500009
0.491421759129,0.252109900009
0.49274072051,0.251678800009
0.479770004749,0.251136100009
0.407710403204,0.250355800009
0.499412387609,0.249195700009
0.470791876316,0.248237200009
0.456567883492,0.246766600009
0.46285790205,0.245863900009
0.511399209499,0.245141200009
0.473516494036,0.244189000009
0.442072182894,0.243453700009
0.427776217461,0.242628400009
0.510100960732,0.241695100009
0.479564547539,0.241196500009
0.453375220299,0.240718600009
0.414370447397,0.240171400009
0.448328584433,0.239626000009
0.49800530076,0.238555000009
0.477633446455,0.237646000009
0.531786978245,0.237048400009
0.476997822523,0.236036800009
0.421813964844,0.235421200009
0.463711798191,0.235009900009
0.452420651913,0.234174700009
0.415208548307,0.233653600009
0.465764969587,0.232687000009
0.481056064367,0.231730300009
0.508869349957,0.230831200009
0.507093787193,0.229899700009
0.478913217783,0.229320100009
0.481919318438,0.228755800009
0.46577835083,0.227050300009
0.553881287575,0.226523800009
0.499459832907,0.226127800009
0.49454459548,0.225172900009
0.45691049099,0.224668900009
0.443152457476,0.223562800009
0.407330542803,0.222961600009
0.481695532799,0.221584600009
0.4784899652,0.220870000009
0.427481621504,0.219935800009
0.552973270416,0.219289600009
0.467136889696,0.218545300009
0.500335395336,0.217963900009
0.465822011232,0.217288900009
0.503377854824,0.216539200009
0.520543932915,0.215771500009
0.497828036547,0.215375500009
0.422809869051,0.214673500009
0.479517519474,0.214120900009
0.464675307274,0.213580900009
0.46240696311,0.212588200009
0.444721996784,0.211990600009
0.427069485188,0.210957400009
0.482642859221,0.210101500009
0.491788327694,0.209761300009
0.485246151686,0.209328400009
0.511803269386,0.208785700009
0.557474672794,0.208413100009
0.449371129274,0.207658000009
0.500718176365,0.206071300009
0.489869832993,0.205539400009
0.479346841574,0.204877900009
0.4332908988,0.204423400009
0.485958725214,0.204000400009
0.501000225544,0.203337100009
0.400018334389,0.202865500009
0.427596718073,0.202060000009
0.456806987524,0.201450700009
0.463385492563,0.200944000009
0.49698510766,0.200259100009
0.524512290955,0.199634500009
0.423855543137,0.199028800009
0.465703308582,0.197845300009
0.480352520943,0.196950700009
0.41315549612,0.196386400009
0.457221716642,0.195457600009
0.520829975605,0.194953600009
0.443921476603,0.193731400009
0.457757681608,0.192814300009
0.48308506608,0.191935900009
0.462490677834,0.191067400009
0.497579872608,0.190117900009
0.482912689447,0.189355600009
0.464713484049,0.188425900009
0.492892205715,0.187861600009
0.50532156229,0.187378300009
0.444662809372,0.186403600009
0.464922368526,0.186040900009
0.495640039444,0.185497300009
0.482896268368,0.184802500009
0.477433115244,0.184156300009
0.496838122606,0.183437200009
0.433054417372,0.182909800009
0.447687357664,0.182512900009
0.481612205505,0.181600300009
0.474031150341,0.180879400009
0.494279026985,0.180238600009
0.45885270834,0.179677900009
0.513361155987,0.178642000009
0.470043092966,0.177370300009
0.487693399191,0.176312800009
0.516529321671,0.175470400009
0.532988846302,0.174502000009
0.430548071861,0.173933200009
0.470844000578,0.173097100009
0.520679175854,0.172055800009
0.482917517424,0.171257500009
0.461203724146,0.170810200009
0.511779725552,0.169414300009
0.553342878819,0.168879700009
0.447471410036,0.168350500009
0.549582064152,0.167941900009
0.52262532711,0.167404600009
0.554304361343,0.166754800009
0.543971955776,0.166157200009
0.499351501465,0.165756700009
0.480674386024,0.164812600009
0.516514480114,0.163648900009
0.496869117022,0.162498700009
0.481600999832,0.161438500009
0.475922971964,0.160557400009
0.492235392332,0.159725800009
0.475192010403,0.158860000009
0.519847035408,0.158187700009
0.425308227539,0.157620700009
0.479369938374,0.156684700009
0.542785406113,0.156295900009
0.459921270609,0.155404000009
0.488155901432,0.154675000009
0.46280387044,0.153855100009
0.560597121716,0.153365500009
0.452481895685,0.152799400009
0.493899643421,0.151507000009
0.521316051483,0.150668200009
0.398216485977,0.150104800009
0.546877622604,0.149600800009
0.484651714563,0.149012200009
0.53766220808,0.148339900009
0.478232055902,0.146540800009
0.531693160534,0.145873000009
0.516423881054,0.145040500009
0.484221607447,0.144640900009
0.517259001732,0.144028900009
0.503839313984,0.143477200009
0.450377702713,0.142786000009
0.502957820892,0.141877900009
0.491518497467,0.141400000009
0.460588246584,0.14044510001
0.444528460503,0.13993660001
0.501733839512,0.13888720001
0.456348925829,0.13837780001
0.532222628593,0.13759300001
0.46874961257,0.13726180001
0.525383770466,0.13627090001
0.509086728096,0.13523410001
0.500331938267,0.13458610001
0.4741114676,0.13395070001
0.478245079517,0.13358980001
0.506940364838,0.13269340001
0.46269801259,0.13165030001
0.455486774445,0.13116970001
0.48896664381,0.13055410001
0.421625673771,0.13005010001
0.531537175179,0.12928240001
0.509277105331,0.12849940001
0.496231198311,0.12799450001
0.491068571806,0.12742570001
0.479638546705,0.12669400001
0.523752629757,0.12624760001
0.522663533688,0.12564640001
0.483993977308,0.12524950001
0.469154894352,0.12499480001
0.477693468332,0.12443410001
0.551405489445,0.12407500001
0.475996643305,0.12329740001
0.523839116096,0.12263320001
0.520518898964,0.12171250001
0.472642302513,0.12122740001
0.431524038315,0.12050740001
0.489395439625,0.12009700001
0.436999887228,0.11927890001
0.501606047153,0.11836540001
0.546406030655,0.11773810001
0.471170842648,0.11693350001
0.449169665575,0.11629000001
0.487428575754,0.11549530001
0.513717770576,0.11492380001
0.520219504833,0.11394370001
0.479447990656,0.11345770001
0.405976235867,0.11292850001
0.43682384491,0.11227330001
0.488732606173,0.11117440001
0.455530464649,0.11016190001
0.551125884056,0.10953280001
0.534614086151,0.10793710001
0.490775793791,0.10679410001
0.50648277998,0.10467550001
0.472790241241,0.10405090001
0.468522340059,0.10298170001
0.523711025715,0.10223110001
0.50291967392,0.10159570001
0.479089796543,0.10084870001
0.451792567968,0.10020070001
0.448756724596,0.1
0.508687436581,0.1
0.460602909327,0.1
0.50150591135,0.1
0.493324488401,0.1
0.50845259428,0.1
0.546063601971,0.1
0.462666749954,0.1
0.482007741928,0.1
0.536568880081,0.1
0.478035479784,0.1
0.543590307236,0.1
0.493729025126,0.1
0.599485218525,0.1
0.504695177078,0.1
0.532498061657,0.1
0.493594139814,0.1
0.516039431095,0.1
0.471818029881,0.1
0.479458928108,0.1
0.4256465137,0.1
0.496761322021,0.1
0.473531842232,0.1
0.510754168034,0.1
0.544661641121,0.1
0.528985977173,0.1
0.514657855034,0.1
0.576492726803,0.1
0.493350803852,0.1
0.474397808313,0.1
0.554432451725,0.1
0.474660128355,0.1
0.52014786005,0.1
0.49898147583,0.1
0.510945379734,0.1
0.517057657242,0.1
0.497922837734,0.1
0.513242602348,0.1
0.511272072792,0.1
0.518940508366,0.1
0.514121830463,0.1
0.52301967144,0.1
0.500285923481,0.1
0.549266219139,0.1
0.531659007072,0.1
0.517744660378,0.1
0.508311569691,0.1
0.553743302822,0.1
0.587884306908,0.1
0.49886444211,0.1
0.502299308777,0.1
0.555001437664,0.1
0.578231751919,0.1
0.53922611475,0.1
0.519856572151,0.1
0.535477995872,0.1
0.499646365643,0.1
0.548553824425,0.1
0.546836972237,0.1
0.475266754627,0.1
0.517153203487,0.1
0.646093189716,0.1
0.498733818531,0.1
0.530412912369,0.1
0.543685078621,0.1
0.581272125244,0.1
0.505362272263,0.1
0.522326529026,0.1
0.521283268929,0.1
0.536612927914,0.1
0.431382954121,0.1
0.580852627754,0.1
0.557327210903,0.1
0.468627989292,0.1
0.463238596916,0.1
0.527674496174,0.1
0.51450830698,0.1
0.534105598927,0.1
0.476584345102,0.1
0.565748393536,0.1
0.560687243938,0.1
0.528553783894,0.1
0.52661716938,0.1
0.496915251017,0.1
0.486949712038,0.1
0.535407423973,0.1
0.535993099213,0.1
0.520692765713,0.1
0.547608733177,0.1
0.550149738789,0.1
0.59050655365,0.1
0.504617452621,0.1
0.568960428238,0.1
0.53107458353,0.1
0.522479593754,0.1
0.563793599606,0.1
0.539521455765,0.1
0.538192629814,0.1
0.540850102901,0.1
0.568185031414,0.1
0.563672482967,0.1
0.526313662529,0.1
0.480032116175,0.1
0.491070300341,0.1
0.55350869894,0.1
0.563069701195,0.1
0.546419620514,0.1
0.521200895309,0.1
0.517856240273,0.1
0.513098478317,0.1
0.586676597595,0.1
0.504788637161,0.1
0.520269274712,0.1
0.520437955856,0.1
0.562948107719,0.1
0.582933068275,0.1
0.541579067707,0.1
0.540773034096,0.1
0.517893016338,0.1
0.499226421118,0.1
0.49442049861,0.1
0.557470023632,0.1
0.498634487391,0.1
0.553785502911,0.1
0.528981745243,0.1
0.55168646574,0.1
0.509156405926,0.1
0.522123575211,0.1
0.569481611252,0.1
0.572180569172,0.1
0.537453591824,0.1
0.587426662445,0.1
0.528693854809,0.1
0.510479986668,0.1
0.53209233284,0.1
0.499626994133,0.1
0.534927964211,0.1
0.515924811363,0.1
0.581301748753,0.1
0.562423169613,0.1
0.530564546585,0.1
0.552477240562,0.1
0.524759590626,0.1
0.552548825741,0.1
0.554346144199,0.1
0.577899754047,0.1
0.544265925884,0.1
0.563754737377,0.1
0.517355680466,0.1
0.593726098537,0.1
0.508609890938,0.1
0.493579149246,0.1
0.594704985619,0.1
0.556006252766,0.1
0.594653606415,0.1
0.582020103931,0.1
0.58166873455,0.1
0.558915197849,0.1
0.561994791031,0.1
0.603882670403,0.1
0.595985412598,0.1
0.551480710506,0.1
0.611654579639,0.1
0.562751948833,0.1
0.557352662086,0.1
0.537883222103,0.1
0.594479680061,0.1
0.601762294769,0.1
0.585810601711,0.1
0.533273100853,0.1
0.56389182806,0.1
0.527251780033,0.1
0.563264548779,0.1
0.5970454216,0.1
0.510127305984,0.1
0.494222074747,0.1
0.522802889347,0.1
0.566551089287,0.1
0.617988288403,0.1
0.608342826366,0.1
0.557032108307,0.1
0.488614410162,0.1
0.551919639111,0.1
0.54660063982,0.1
0.532403588295,0.1
0.582599520683,0.1
0.568201124668,0.1
0.555536627769,0.1
0.582285583019,0.1
0.549253225327,0.1
0.633625805378,0.1
0.531536698341,0.1
0.630725681782,0.1
0.590814113617,0.1
0.654747903347,0.1
0.557656228542,0.1
0.577387988567,0.1
0.550894975662,0.1
0.581443071365,0.1
0.617730140686,0.1
0.676591217518,0.1
0.528457283974,0.1
0.538749337196,0.1
0.558577954769,0.1
0.590170681477,0.1
0.574030816555,0.1
0.640537559986,0.1
0.546286582947,0.1
0.547299563885,0.1
0.517681717873,0.1
0.596728146076,0.1
0.570259213448,0.1
0.573639988899,0.1
0.580528914928,0.1
0.57703346014,0.1
0.604321777821,0.1
0.547033131123,0.1
0.567920982838,0.1
0.583542227745,0.1
0.600329041481,0.1
0.594019174576,0.1
0.573406457901,0.1
0.576164841652,0.1
0.615417897701,0.1
0.613330125809,0.1
0.524009108543,0.1
0.562851071358,0.1
0.620261609554,0.1
0.557738482952,0.1
0.569874942303,0.1
0.515933275223,0.1
0.530080854893,0.1
0.521238684654,0.1
0.458377093077,0.1
0.570380628109,0.1
0.592919826508,0.1
0.555620849133,0.1
0.567348837852,0.1
0.615368783474,0.1
0.619611859322,0.1
0.579619586468,0.1
0.599517405033,0.1
0.542800784111,0.1
0.543356776237,0.1
0.602109491825,0.1
0.611517965794,0.1
0.583201229572,0.1
0.603348493576,0.1
0.579854309559,0.1
0.505737304688,0.1
0.555836975574,0.1
0.58086681366,0.1
0.539153516293,0.1
0.6009375453,0.1
0.612672746181,0.1
0.58106225729,0.1
0.586037993431,0.1
0.595670759678,0.1
0.558637976646,0.1
0.537372529507,0.1
0.594905018806,0.1
0.567879378796,0.1
0.547790944576,0.1
0.540628254414,0.1
0.57934564352,0.1
0.599428653717,0.1
0.589911401272,0.1
0.563077747822,0.1
0.570212841034,0.1
0.656458616257,0.1
0.582951784134,0.1
0.528735280037,0.1
0.558443307877,0.1
0.526410639286,0.1
0.585791349411,0.1
0.599441766739,0.1
0.592037975788,0.1
0.57574313879,0.1
0.51285469532,0.1
0.57458782196,0.1
0.543511748314,0.1
0.671430766582,0.1
0.54702603817,0.1
0.584814608097,0.1
0.580667614937,0.1
0.637094795704,0.1
0.596986651421,0.1
0.546075701714,0.1
0.568078041077,0.1
0.637909650803,0.1
0.627387106419,0.1
0.551088273525,0.1
0.55207246542,0.1
0.59816557169,0.1
0.58554315567,0.1
0.621293902397,0.1
0.577814400196,0.1
0.551144778728,0.1
0.605214893818,0.1
0.570095419884,0.1
0.596245408058,0.1
0.556555747986,0.1
0.567991733551,0.1
0.609253525734,0.1
0.649497687817,0.1
0.603654503822,0.1
0.522954463959,0.1
0.573813915253,0.1
0.578010976315,0.1
0.569824457169,0.1
0.578671872616,0.1
0.603555440903,0.1
0.595826625824,0.1
0.581550598145,0.1
0.594105899334,0.1
0.532959699631,0.1
0.592186510563,0.1
0.597616076469,0.1
0.596213400364,0.1
0.638558506966,0.1
0.600054442883,0.1
0.549703598022,0.1
0.556039512157,0.1
0.542221128941,0.1
0.629410743713,0.1
0.655555307865,0.1
0.608689427376,0.1
0.609972655773,0.1
0.585118412971,0.1
0.595490396023,0.1
0.551851630211,0.1
0.587187290192,0.1
0.556540131569,0.1
0.541391372681,0.1
0.592605948448,0.1
0.60533362627,0.1
0.664883732796,0.1
0.606387317181,0.1
0.617055177689,0.1
0.608518004417,0.1
0.597241520882,0.1
0.662471950054,0.1
0.611556828022,0.1
0.625952422619,0.1
0.53563606739,0.1
0.531763374805,0.1
0.603444814682,0.1
0.569074749947,0.1
0.61809951067,0.1
0.531351089478,0.1
0.676547169685,0.1
0.651880919933,0.1
0.592630803585,0.1
0.61629152298,0.1
0.620140433311,0.1
0.603448390961,0.1
0.650391161442,0.1
0.608770608902,0.1
0.596659302711,0.1
0.514112830162,0.1
0.623692512512,0.1
0.648371219635,0.1
0.659088969231,0.1
0.639560759068,0.1
0.625098228455,0.1
0.571018457413,0.1
0.566444337368,0.1
0.670821607113,0.1
0.610880255699,0.1
0.617089927197,0.1
0.599510550499,0.1
0.602256417274,0.1
0.634148955345,0.1
0.59114253521,0.1
0.624091684818,0.1
0.56500607729,0.1
0.594133019447,0.1
0.611530840397,0.1
0.606448590755,0.1
0.572349131107,0.1
0.625311911106,0.1
0.622940719128,0.1
0.628866791725,0.1
0.664518356323,0.1
0.563279926777,0.1
0.562718987465,0.1
0.599670350552,0.1
0.584141135216,0.1
0.642269313335,0.1
0.619332671165,0.1
0.562817692757,0.1
0.594432353973,0.1
0.603632628918,0.1
0.621431171894,0.1
0.580155551434,0.1
0.627659678459,0.1
0.581542313099,0.1
0.555913209915,0.1
0.583819806576,0.1
0.601032555103,0.1
0.632239699364,0.1
0.585934460163,0.1
0.590028524399,0.1
0.623250186443,0.1
0.55281329155,0.1
0.617079615593,0.1
0.653881967068,0.1
0.577151179314,0.1
0.602303743362,0.1
0.553948104382,0.1
0.627061963081,0.1
0.608256459236,0.1
0.541880488396,0.1
0.589482724667,0.1
0.61738216877,0.1
0.583638548851,0.1
0.58552634716,0.1
0.585449337959,0.1
0.647163212299,0.1
0.612299144268,0.1
0.619187295437,0.1
0.587757825851,0.1
0.66728335619,0.1
0.592926740646,0.1
0.553160786629,0.1
0.557677030563,0.1
0.575957894325,0.1
0.64060240984,0.1
0.592274427414,0.1
0.584707140923,0.1
0.603796839714,0.1
0.593737781048,0.1
0.562437713146,0.1
0.546917974949,0.1
0.621840536594,0.1
0.536612033844,0.1
0.602223992348,0.1
0.58812379837,0.1
0.593354463577,0.1
0.634853482246,0.1
0.617088913918,0.1
0.588293671608,0.1
0.594728350639,0.1
0.594808340073,0.1
0.57879948616,0.1
0.564749956131,0.1
0.607068419456,0.1
0.528047144413,0.1
0.615837752819,0.1
0.651169359684,0.1
0.592962563038,0.1
0.573712527752,0.1
0.642291843891,0.1
0.604914784431,0.1
0.645414352417,0.1
0.672958493233,0.1
0.609347522259,0.1
0.588302373886,0.1
0.622452318668,0.1
0.614822149277,0.1
0.620762050152,0.1
0.612261414528,0.1
0.629995644093,0.1
0.555463671684,0.1
0.593452334404,0.1
0.640313446522,0.1
0.563484251499,0.1
0.629891574383,0.1
0.560933947563,0.1
0.667584359646,0.1
0.629501104355,0.1
0.698147475719,0.1
0.606529474258,0.1
0.588962435722,0.1
0.576430737972,0.1
0.63989508152,0.1
0.60979115963,0.1
0.610141038895,0.1
0.665350198746,0.1
0.639435529709,0.1
0.540031254292,0.1
0.581406712532,0.1
0.623843550682,0.1
0.625059783459,0.1
0.581383705139,0.1
0.643450677395,0.1
0.625797331333,0.1
0.617884576321,0.1
0.658402681351,0.1
0.620386838913,0.1
0.653159797192,0.1
0.688907504082,0.1
0.659777283669,0.1
0.641178131104,0.1
0.57604020834,0.1
0.633149802685,0.1
0.594417691231,0.1
0.575548291206,0.1
0.611646354198,0.1
0.609225511551,0.1
0.660457015038,0.1
0.643656849861,0.1
0.632003426552,0.1
0.683072209358,0.1
0.612173914909,0.1
0.609129905701,0.1
0.661968827248,0.1
0.667475044727,0.1
0.665115892887,0.1
0.642196655273,0.1
0.657509863377,0.1
0.637891769409,0.1
0.597285509109,0.1
0.658285140991,0.1
0.61921441555,0.1
0.578557789326,0.1
0.655941903591,0.1
0.633391559124,0.1
0.671898782253,0.1
0.622187316418,0.1
0.639582455158,0.1
0.626475691795,0.1
0.586789190769,0.1
0.659376621246,0.1
0.616537630558,0.1
0.620293855667,0.1
0.608426272869,0.1
0.644155919552,0.1
0.634775161743,0.1
0.599196314812,0.1
0.55217975378,0.1
0.617462873459,0.1
0.599232196808,0.1
0.675483465195,0.1
0.61059063673,0.1
0.617447912693,0.1
0.628133535385,0.1
0.685791373253,0.1
0.673791050911,0.1
0.591356694698,0.1
0.617054224014,0.1
0.594482541084,0.1
0.612601518631,0.1
0.609727621078,0.1
0.647887945175,0.1
0.59539014101,0.1
0.626763761044,0.1
0.61596173048,0.1
0.654275655746,0.1
0.669716238976,0.1
0.603846311569,0.1
0.631318747997,0.1
0.623973846436,0.1
0.663286268711,0.1
0.618935346603,0.1
0.633110046387,0.1
0.666077852249,0.1
0.644741475582,0.1
0.594695866108,0.1
0.631104290485,0.1
0.655737161636,0.1
0.63931876421,0.1
0.615735590458,0.1
0.637579321861,0.1
0.628082275391,0.1
0.708049356937,0.1
0.578800499439,0.1
0.604528367519,0.1
0.61151856184,0.1
0.66143143177,0.1
0.628998041153,0.1
0.626833796501,0.1
0.599264919758,0.1
0.594573140144,0.1
0.600498795509,0.1
0.592861354351,0.1
0.613916575909,0.1
0.635680377483,0.1
0.649138271809,0.1
0.65107947588,0.1
0.643290996552,0.1
0.662401199341,0.1
0.630273938179,0.1
0.64363104105,0.1
0.630169808865,0.1
0.648418307304,0.1
0.605856001377,0.1
0.617457270622,0.1
0.592675328255,0.1
0.654235064983,0.1
0.564347803593,0.1
0.627317667007,0.1
0.623902857304,0.1
0.617902457714,0.1
0.68228662014,0.1
0.627055943012,0.1
0.58620595932,0.1
0.6138625741,0.1
0.653786599636,0.1
0.654783308506,0.1
0.639952719212,0.1
0.629773318768,0.1
0.651706218719,0.1
0.663636028767,0.1
0.669963002205,0.1
0.622989714146,0.1
0.618053436279,0.1
0.642814218998,0.1
0.604828715324,0.1
0.622592747211,0.1
0.618667960167,0.1
0.660545170307,0.1
0.652804672718,0.1
0.642227947712,0.1
0.675163209438,0.1
0.6251475811,0.1
0.612390458584,0.1
0.56392878294,0.1
0.629124581814,0.1
0.638998508453,0.1
0.678799331188,0.1
0.646232426167,0.1
0.690291345119,0.1
0.576638758183,0.1
0.598332345486,0.1
0.517699539661,0.1
0.641655981541,0.1
0.653826773167,0.1
0.653791248798,0.1
0.584696233273,0.1
0.583742439747,0.1
0.590698599815,0.1
0.647810161114,0.1
0.598401010036,0.1
0.611108660698,0.1
0.585105955601,0.1
0.647331297398,0.1
0.609426796436,0.1
0.667312204838,0.1
0.625196933746,0.1
0.612212836742,0.1
0.625095665455,0.1
0.673093736172,0.1
0.621401071548,0.1
0.65752106905,0.1
0.643014490604,0.1
0.592291533947,0.1
0.635152459145,0.1
0.605521142483,0.1
0.622628331184,0.1
0.69465047121,0.1
0.666702091694,0.1
0.606131672859,0.1
0.637569785118,0.1
0.60134190321,0.1
0.67596924305,0.1
0.722576141357,0.1
0.58334851265,0.1
0.662410855293,0.1
0.616282522678,0.1
0.625636518002,0.1
0.618374586105,0.1
0.566648602486,0.1
0.628102004528,0.1
0.597119092941,0.1
0.63545358181,0.1
0.608784735203,0.1
0.631226599216,0.1
0.66635620594,0.1
0.612602710724,0.1
0.580259799957,0.1
0.553778231144,0.1
0.643647670746,0.1
0.639805078506,0.1
0.612366676331,0.1
0.623820126057,0.1
0.590664148331,0.1
0.638655841351,0.1
0.597607910633,0.1
0.641442716122,0.1
0.625070989132,0.1
0.577988862991,0.1
0.591764211655,0.1
0.613290131092,0.1
0.642860889435,0.1
0.604300141335,0.1
0.594573020935,0.1
0.675336480141,0.1
0.655564188957,0.1
0.627440452576,0.1
0.626221895218,0.1
0.627001225948,0.1
0.522435903549,0.1
0.632818162441,0.1
0.650760710239,0.1
0.618664443493,0.1
0.563027620316,0.1
0.644153833389,0.1
0.634850025177,0.1
0.630741178989,0.1
0.598513066769,0.1
0.622916400433,0.1
0.663146615028,0.1
0.624484777451,0.1
0.608743011951,0.1
0.631963014603,0.1
0.642331123352,0.1
0.63448536396,0.1
0.619298219681,0.1
0.591656148434,0.1
0.626716256142,0.1
0.606359481812,0.1
0.657441318035,0.1
0.638116717339,0.1
0.605088531971,0.1
0.581054270267,0.1
0.582791090012,0.1
0.619205951691,0.1
0.5846144557,0.1
0.606935918331,0.1
0.63662481308,0.1
0.560804665089,0.1
0.591774582863,0.1
0.609680533409,0.1
0.663343966007,0.1
0.618059098721,0.1
0.598941385746,0.1
0.597723722458,0.1
0.603401422501,0.1
0.696244001389,0.1
0.566565930843,0.1
0.624568045139,0.1
0.597621917725,0.1
0.665568113327,0.1
0.602312505245,0.1
0.615048646927,0.1
0.645413100719,0.1
0.611744225025,0.1
0.619391620159,0.1
0.65088737011,0.1
0.612597107887,0.1
0.658715844154,0.1
0.647189497948,0.1
0.611356019974,0.1
0.639547944069,0.1
0.669696569443,0.1
0.601110994816,0.1
0.605300784111,0.1
0.652129411697,0.1
0.602948665619,0.1
0.595458447933,0.1
0.59909760952,0.1
0.630665063858,0.1
0.603456318378,0.1
0.623794853687,0.1
0.595016121864,0.1
0.629044592381,0.1
0.686646044254,0.1
0.672694146633,0.1
0.629294812679,0.1
0.645061910152,0.1
0.597947359085,0.1
0.64555054903,0.1
0.588689982891,0.1
0.635940611362,0.1
0.625734210014,0.1
0.667903065681,0.1
0.621760070324,0.1
0.692551136017,0.1
0.644697904587,0.1
0.625701546669,0.1
0.612469553947,0.1
0.633443295956,0.1
0.621920228004,0.1
0.664674043655,0.1
0.622362732887,0.1
0.686803877354,0.1
0.656577825546,0.1
0.605791807175,0.1
0.639276683331,0.1
0.668316483498,0.1
0.58440464735,0.1
0.625229895115,0.1
0.667431414127,0.1
0.616974115372,0.1
0.638603568077,0.1
0.673711776733,0.1
0.633164942265,0.1
0.654649376869,0.1
0.62569385767,0.1
0.61850386858,0.1
0.673883736134,0.1
0.659747123718,0.1
0.58495926857,0.1
0.578612029552,0.1
0.626808404922,0.1
0.614723980427,0.1
0.561209440231,0.1
0.596068501472,0.1
0.655036091805,0.1
0.640248298645,0.1
0.620635390282,0.1
0.635941684246,0.1
0.604720890522,0.1
0.639789581299,0.1
0.616196334362,0.1
0.642272472382,0.1
0.673000395298,0.1
0.65049046278,0.1
0.579212188721,0.1
0.605903327465,0.1
0.696328639984,0.1
0.648058831692,0.1
0.634931087494,0.1
0.630413889885,0.1
0.664151251316,0.1
0.596493601799,0.1
0.642234563828,0.1
0.6772595644,0.1
0.64931333065,0.1
0.644173681736,0.1
0.636440396309,0.1
0.622500061989,0.1
0.563267350197,0.1
0.616232335567,0.1
0.58349186182,0.1
0.522801280022,0.1
0.590187251568,0.1
0.670429766178,0.1
0.619737446308,0.1
0.668897151947,0.1
0.566827654839,0.1
0.580840289593,0.1
0.606704890728,0.1
0.623985230923,0.1
0.64101755619,0.1
0.634458005428,0.1
0.660344719887,0.1
0.641345441341,0.1
0.613740384579,0.1
0.6300740242,0.1
0.63311880827,0.1
0.604869782925,0.1
0.602351844311,0.1
0.560668706894,0.1
0.618101418018,0.1
0.622662186623,0.1
0.581042468548,0.1
0.619648456573,0.1
0.647867619991,0.1
0.627205789089,0.1
0.624482452869,0.1
0.626942813396,0.1
0.601070284843,0.1
0.631019890308,0.1
0.6316203475,0.1
0.644678592682,0.1
0.650637865067,0.1
0.641404747963,0.1
0.614341616631,0.1
0.632156729698,0.1
0.664572179317,0.1
0.68471711874,0.1
0.668802142143,0.1
0.617541611195,0.1
0.63011777401,0.1
0.654865086079,0.1
0.623206436634,0.1
0.614616155624,0.1
0.630722522736,0.1
0.619935929775,0.1
0.648609936237,0.1
0.639149367809,0.1
0.64315366745,0.1
0.60698145628,0.1
0.646760880947,0.1
0.586030364037,0.1
0.673877179623,0.1
0.610008955002,0.1
0.653647780418,0.1
0.588838338852,0.1
0.63461124897,0.1
0.657381772995,0.1
0.672877788544,0.1
0.615884721279,0.1
0.608833670616,0.1
0.630137324333,0.1
0.682434022427,0.1
0.609073400497,0.1
0.640784919262,0.1
0.620602548122,0.1
0.625590622425,0.1
0.642305552959,0.1
0.617794930935,0.1
0.644957184792,0.1
0.65385890007,0.1
0.659051716328,0.1
0.612078130245,0.1
0.62494456768,0.1
0.592951834202,0.1
0.594240427017,0.1
0.585165202618,0.1
0.639336824417,0.1
0.648494184017,0.1
0.629523992538,0.1
0.610651731491,0.1
0.649243950844,0.1
0.618755698204,0.1
0.6014341712,0.1
0.630062222481,0.1
0.601775944233,0.1
0.634137332439,0.1
0.619280219078,0.1
0.556035220623,0.1
0.655705988407,0.1
0.627874612808,0.1
0.67542129755,0.1
0.591732561588,0.1
0.67196470499,0.1
0.639909207821,0.1
0.667657196522,0.1
0.643795192242,0.1
0.613295018673,0.1
0.606812477112,0.1
0.597551286221,0.1
0.657883107662,0.1
0.648604810238,0.1
0.592091679573,0.1
0.540376126766,0.1
0.601114988327,0.1
0.650040388107,0.1
0.692565858364,0.1
0.622480213642,0.1
0.66150790453,0.1
0.616951882839,0.1
0.674746692181,0.1
0.587953150272,0.1
0.642957508564,0.1
0.648784518242,0.1
0.610029041767,0.1
0.612247407436,0.1
0.598048150539,0.1
0.638166248798,0.1
0.654555976391,0.1
0.66064286232,0.1
0.657914340496,0.1
0.629079401493,0.1
0.650537967682,0.1
0.658430933952,0.1
0.66377389431,0.1
0.689922749996,0.1
0.623380243778,0.1
0.72370493412,0.1
0.64659923315,0.1
0.618721783161,0.1
0.585102975368,0.1
0.592767715454,0.1
0.64477699995,0.1
0.587013244629,0.1
0.633205711842,0.1
0.596686184406,0.1
0.610408365726,0.1
0.630312919617,0.1
0.647820711136,0.1
0.606708705425,0.1
0.606320202351,0.1
0.621397197247,0.1
0.605719923973,0.1
0.646349012852,0.1
0.66075104475,0.1
0.632864356041,0.1
0.640679359436,0.1
0.657373309135,0.1
0.690688073635,0.1
0.592181384563,0.1
0.646529316902,0.1
0.655151665211,0.1
0.646891713142,0.1
0.63674145937,0.1
0.613510489464,0.1
0.65196532011,0.1
0.643780112267,0.1
0.631193876266,0.1
0.62168353796,0.1
0.639742791653,0.1
0.608674764633,0.1
0.610168814659,0.1
0.657033383846,0.1
0.58261692524,0.1
0.642141103745,0.1
0.655408740044,0.1
0.665992438793,0.1
0.585659921169,0.1
0.611404061317,0.1
0.687347173691,0.1
0.668580770493,0.1
0.646242380142,0.1
0.640919923782,0.1
0.622062683105,0.1
0.566757917404,0.1
0.605042040348,0.1
0.668282330036,0.1
0.622843146324,0.1
0.736307144165,0.1
0.668760478497,0.1
0.670143902302,0.1
0.602635443211,0.1
0.547105371952,0.1
0.66906195879,0.1
0.632362544537,0.1
0.652815699577,0.1
0.639650046825,0.1
0.654587030411,0.1
0.641492307186,0.1
0.631631135941,0.1
0.717302441597,0.1
0.663157939911,0.1
0.601472198963,0.1
0.615315854549,0.1
0.655561983585,0.1
0.666507959366,0.1
0.650173842907,0.1
0.610339105129,0.1
0.666899442673,0.1
0.638643682003,0.1
0.670831441879,0.1
0.665466427803,0.1
0.622922718525,0.1
0.677905380726,0.1
0.66506922245,0.1
0.653640687466,0.1
0.654046475887,0.1
0.676686108112,0.1
0.661782085896,0.1
0.658264458179,0.1
0.613901257515,0.1
0.552448570728,0.1
0.684078752995,0.1
0.611815333366,0.1
0.595371007919,0.1
0.621130049229,0.1
0.622961521149,0.1
0.645356237888,0.1
0.589258909225,0.1
0.634838044643,0.1
0.588770985603,0.1
0.64308065176,0.1
0.67184317112,0.1
0.614882409573,0.1
0.630735516548,0.1
0.642246484756,0.1
0.587574183941,0.1
0.655116260052,0.1
0.629919052124,0.1
0.63418006897,0.1
0.648108363152,0.1
0.604085385799,0.1
0.645152926445,0.1
0.589070916176,0.1
0.625597536564,0.1
0.654955208302,0.1
0.623690605164,0.1
0.61567401886,0.1
0.586607635021,0.1
0.652821958065,0.1
0.653220236301,0.1
0.659319579601,0.1
0.639037430286,0.1
0.65445125103,0.1
0.63542920351,0.1
0.656838655472,0.1
0.639207482338,0.1
0.669374227524,0.1
0.665661752224,0.1
0.629076063633,0.1
0.665264904499,0.1
0.66405326128,0.1
0.630871832371,0.1
0.636789739132,0.1
0.631156623363,0.1
0.596623539925,0.1
0.622152030468,0.1
0.671166956425,0.1
0.61814558506,0.1
0.644447445869,0.1
0.60439157486,0.1
0.677355527878,0.1
0.651834070683,0.1
0.688437998295,0.1
0.646143555641,0.1
0.626151323318,0.1
0.705406665802,0.1
0.680073738098,0.1
0.655863106251,0.1
0.625024318695,0.1
0.620025992393,0.1
0.654912889004,0.1
0.659581005573,0.1
0.642322361469,0.1
0.638126432896,0.1
0.658597707748,0.1
0.616120874882,0.1
0.651084840298,0.1
0.636236011982,0.1
0.639928102493,0.1
0.639412581921,0.1
0.652457118034,0.1
0.677475631237,0.1
0.608728706837,0.1
0.683262050152,0.1
0.602855205536,0.1
0.679420292377,0.1
0.705708861351,0.1
0.751739501953,0.1
0.633718430996,0.1
0.659531474113,0.1
0.621086716652,0.1
0.571285188198,0.1
0.620499551296,0.1
0.631422221661,0.1
0.688044011593,0.1
0.628349065781,0.1
0.708874583244,0.1
0.665313184261,0.1
0.665723562241,0.1
0.637057244778,0.1
0.651505768299,0.1
0.653093695641,0.1
0.614701926708,0.1
0.677338659763,0.1
0.62829631567,0.1
0.677018523216,0.1
0.621250391006,0.1
0.597756326199,0.1
0.670522034168,0.1
0.632792115211,0.1
0.655280172825,0.1
0.654686927795,0.1
0.682535946369,0.1
0.655920803547,0.1
0.625404417515,0.1
0.692512392998,0.1
0.634031772614,0.1
0.679138839245,0.1
0.663442850113,0.1
0.643557548523,0.1
0.643148422241,0.1
0.655310809612,0.1
0.686356186867,0.1
0.65935254097,0.1
0.633911967278,0.1
0.664776265621,0.1
0.64864808321,0.1
0.599568724632,0.1
0.634394288063,0.1
0.688564300537,0.1
0.685723185539,0.1
0.638407945633,0.1
0.652478396893,0.1
0.657345354557,0.1
0.656799316406,0.1
0.67651116848,0.1
0.662492156029,0.1
0.68710231781,0.1
0.663604974747,0.1
0.719099581242,0.1
0.663043797016,0.1
0.682365953922,0.1
0.703443527222,0.1
0.619363963604,0.1
0.669791996479,0.1
0.64936208725,0.1
0.667092561722,0.1
0.598306298256,0.1
0.665607631207,0.1
0.636091351509,0.1
0.683020293713,0.1
0.67639195919,0.1
0.667405307293,0.1
0.666424036026,0.1
0.665755629539,0.1
0.698703408241,0.1
0.643675684929,0.1
0.664425194263,0.1
0.663672804832,0.1
0.647678911686,0.1
0.662605762482,0.1
0.65584141016,0.1
0.620339751244,0.1
0.666154503822,0.1
0.701546549797,0.1
0.677677750587,0.1
0.675337016582,0.1
0.658587098122,0.1
0.653450608253,0.1
0.684518575668,0.1
0.67509740591,0.1
0.663465559483,0.1
0.690289676189,0.1
0.594710707664,0.1
0.666810870171,0.1
0.61908185482,0.1
0.691989064217,0.1
0.681136667728,0.1
0.681319236755,0.1
0.643469929695,0.1
0.676695406437,0.1
0.701834380627,0.1
0.68831217289,0.1
0.67402023077,0.1
0.637557685375,0.1
0.680664181709,0.1
0.678212940693,0.1
0.627991020679,0.1
0.659400224686,0.1
0.670246005058,0.1
0.675399363041,0.1
0.644363701344,0.1
0.589746534824,0.1
0.693361222744,0.1
0.662861764431,0.1
0.683832526207,0.1
0.692601799965,0.1
0.698800444603,0.1
0.702006578445,0.1
0.690283894539,0.1
0.710080325603,0.1
0.687091648579,0.1
0.657376527786,0.1
0.686717391014,0.1
0.731922268867,0.1
0.681814849377,0.1
0.604295015335,0.1
0.670248389244,0.1
0.656686484814,0.1
0.68633556366,0.1
0.63349878788,0.1
0.711193203926,0.1
0.71590167284,0.1
0.672352075577,0.1
0.699612617493,0.1
0.680757522583,0.1
0.643799543381,0.1
0.696029305458,0.1
0.657606422901,0.1
0.70721590519,0.1
0.687489449978,0.1
0.677274048328,0.1
0.654140293598,0.1
0.659068346024,0.1
0.586057126522,0.1
0.696981430054,0.1
0.676795721054,0.1
0.64927893877,0.1
0.653409004211,0.1
0.688713371754,0.1
0.734974205494,0.1
0.654865860939,0.1
0.658223867416,0.1
0.689824998379,0.1
0.680650174618,0.1
0.644918859005,0.1
0.659078538418,0.1
0.681721627712,0.1
0.698459029198,0.1
0.687998771667,0.1
0.66489726305,0.1
0.687212526798,0.1
0.662464261055,0.1
0.640723645687,0.1
0.68872988224,0.1
0.724253714085,0.1
0.662788391113,0.1
0.699905693531,0.1
0.689524352551,0.1
0.636640906334,0.1
0.665384709835,0.1
0.700023114681,0.1
0.645964086056,0.1
0.670118808746,0.1
0.670858442783,0.1
0.690407037735,0.1
0.687585771084,0.1
0.707982182503,0.1
0.675112307072,0.1
0.676752567291,0.1
0.687956631184,0.1
0.698548436165,0.1
0.686202704906,0.1
0.655549824238,0.1
0.737309396267,0.1
0.656401693821,0.1
0.680557072163,0.1
0.67540460825,0.1
0.676124513149,0.1
0.665642976761,0.1
0.653646290302,0.1
0.653706550598,0.1
0.704006969929,0.1
0.680768072605,0.1
0.686009466648,0.1
0.696393370628,0.1
0.692988097668,0.1
0.68338996172,0.1
0.711422681808,0.1
0.700473666191,0.1
0.696657299995,0.1
0.613566696644,0.1
0.709699392319,0.1
0.646435379982,0.1
0.688093423843,0.1
0.725153446198,0.1
0.670604050159,0.1
0.69877487421,0.1
0.649515628815,0.1
0.646042585373,0.1
0.644310832024,0.1
0.661097347736,0.1
0.741600573063,0.1
0.710663557053,0.1
0.677991807461,0.1
0.704142689705,0.1
0.686054050922,0.1
0.673068523407,0.1
0.669699370861,0.1
0.644522130489,0.1
0.675180613995,0.1
0.672303915024,0.1
0.690077126026,0.1
0.656708240509,0.1
0.684775710106,0.1
0.689439117908,0.1
0.650861740112,0.1
0.694277942181,0.1
0.723918378353,0.1
0.703634798527,0.1
0.641874551773,0.1
0.676326870918,0.1
0.682391345501,0.1
0.645127117634,0.1
0.675222814083,0.1
0.660339891911,0.1
0.632611751556,0.1
0.698978245258,0.1
0.776484906673,0.1
0.69148671627,0.1
0.650790214539,0.1
0.67238265276,0.1
0.703927338123,0.1
0.645374000072,0.1
