mean_loss,epsilon
0.562846545048,0.9998767
0.240865376668,0.9995212
0.213369033184,0.9992917
0.214118001476,0.9990334
0.224017531778,0.9989425
0.187400880212,0.9988183
0.213481467671,0.9984853
0.195616724744,0.9983863
0.189361451603,0.9981955
0.188612447356,0.9979084
0.19169312162,0.9977617
0.182578756735,0.9976096
0.21885584361,0.9973603
0.190069833542,0.9970345
0.195107132315,0.9967357
0.208311426063,0.9963046
0.21400131977,0.9960094
0.243129245284,0.9959383
0.20894920989,0.995689
0.197098800705,0.9955027
0.182820335875,0.995113
0.196484927993,0.9944524
